%!PS-Adobe-3.0 EPSF-3.0
%%Creator: cairo 1.12.2 (http://cairographics.org)
%%CreationDate: Mon Aug 19 22:17:55 2013
%%Pages: 1
%%DocumentData: Clean7Bit
%%LanguageLevel: 2
%%BoundingBox: 0 0 516 421
%%EndComments
%%BeginProlog
save
50 dict begin
/q { gsave } bind def
/Q { grestore } bind def
/cm { 6 array astore concat } bind def
/w { setlinewidth } bind def
/J { setlinecap } bind def
/j { setlinejoin } bind def
/M { setmiterlimit } bind def
/d { setdash } bind def
/m { moveto } bind def
/l { lineto } bind def
/c { curveto } bind def
/h { closepath } bind def
/re { exch dup neg 3 1 roll 5 3 roll moveto 0 rlineto
      0 exch rlineto 0 rlineto closepath } bind def
/S { stroke } bind def
/f { fill } bind def
/f* { eofill } bind def
/n { newpath } bind def
/W { clip } bind def
/W* { eoclip } bind def
/BT { } bind def
/ET { } bind def
/pdfmark where { pop globaldict /?pdfmark /exec load put }
    { globaldict begin /?pdfmark /pop load def /pdfmark
    /cleartomark load def end } ifelse
/BDC { mark 3 1 roll /BDC pdfmark } bind def
/EMC { mark /EMC pdfmark } bind def
/cairo_store_point { /cairo_point_y exch def /cairo_point_x exch def } def
/Tj { show currentpoint cairo_store_point } bind def
/TJ {
  {
    dup
    type /stringtype eq
    { show } { -0.001 mul 0 cairo_font_matrix dtransform rmoveto } ifelse
  } forall
  currentpoint cairo_store_point
} bind def
/cairo_selectfont { cairo_font_matrix aload pop pop pop 0 0 6 array astore
    cairo_font exch selectfont cairo_point_x cairo_point_y moveto } bind def
/Tf { pop /cairo_font exch def /cairo_font_matrix where
      { pop cairo_selectfont } if } bind def
/Td { matrix translate cairo_font_matrix matrix concatmatrix dup
      /cairo_font_matrix exch def dup 4 get exch 5 get cairo_store_point
      /cairo_font where { pop cairo_selectfont } if } bind def
/Tm { 2 copy 8 2 roll 6 array astore /cairo_font_matrix exch def
      cairo_store_point /cairo_font where { pop cairo_selectfont } if } bind def
/g { setgray } bind def
/rg { setrgbcolor } bind def
/d1 { setcachedevice } bind def
%%EndProlog
%%Page: 1 1
%%BeginPageSetup
%%PageBoundingBox: 0 0 516 421
%%EndPageSetup
q 0 0 516 421 rectclip q
1 g
0 0 516 421 rectfill
q
0 421 516 -421 re W n
  q
1 g
0 0 516 421 rectfill
0.92549 0.960784 1 rg
2 418 511.5 -30 re f
2 388 511.5 -386 re f
0.85098 0.917647 1 rg
2 388 24 -138 re f
26 388 487.5 -138 re f
0.8 0.847059 0.890196 rg
2 250 24 -126 re f
26 250 487.5 -126 re f
0.85098 0.917647 1 rg
2 124 24 -122 re f
26 124 487.5 -122 re f
0 g
1 w
0 J
0 j
[] 0.0 d
1.45 M q 1 0 0 1 0 421 cm
2 -3 511.5 -416 re S Q
q 1 0 0 1 0 421 cm
26 -33 487.5 -386 re S Q
q 1 0 0 1 0 421 cm
2 -33 511.5 -138 re S Q
q 1 0 0 1 0 421 cm
2 -171 511.5 -126 re S Q
q 1 0 0 1 0 421 cm
2 -297 511.5 -122 re S Q
183.957 411.605 m 183.957 410.34 l 177.41 401.902 l 183.988 401.902 l 183.988
 400.668 l 175.66 400.668 l 175.66 401.902 l 182.223 410.371 l 176.082 410.371
 l 176.082 411.605 l h
187.309 411.605 m 187.309 400.668 l 185.902 400.668 l 185.902 411.605 l
 h
194.402 411.777 m 197.621 411.777 199.699 409.48 199.699 405.965 c 199.699
 404.184 198.996 402.48 197.809 401.48 c 196.934 400.73 195.746 400.324 
194.418 400.324 c 191.277 400.324 189.137 402.637 189.137 406.059 c 189.137
 409.48 191.277 411.777 194.402 411.777 c h
194.402 410.559 m 192.105 410.559 190.543 408.746 190.543 406.059 c 190.543
 403.355 192.105 401.559 194.418 401.559 c 196.73 401.559 198.309 403.355
 198.309 405.996 c 198.309 408.746 196.777 410.559 194.402 410.559 c h
208.285 408.527 m 208.285 407.512 l 206.977 407.512 l 206.977 400.668 l
 205.727 400.668 l 205.727 407.512 l 204.68 407.512 l 204.68 408.527 l 205.727
 408.527 l 205.727 409.855 l 205.727 410.98 206.43 411.652 207.586 411.652
 c 207.836 411.652 207.988 411.637 208.285 411.574 c 208.285 410.543 l 207.988
 410.559 207.961 410.559 207.852 410.559 c 207.273 410.559 206.977 410.277
 206.977 409.762 c 206.977 408.527 l h
209.613 408.527 m 210.77 408.527 l 210.77 407.105 l 211.488 408.277 212.113
 408.746 212.91 408.746 c 213.082 408.746 213.191 408.73 213.395 408.715
 c 213.395 407.434 l 212.52 407.418 212.145 407.324 211.77 407.043 c 211.16
 406.605 210.879 405.871 210.879 404.746 c 210.879 400.668 l 209.613 400.668
 l h
221.609 401.402 m 221.609 400.465 l 221.203 400.355 221 400.324 220.75 
400.324 c 219.938 400.324 219.547 400.684 219.453 401.48 c 218.578 400.668
 217.781 400.324 216.781 400.324 c 215.203 400.324 214.203 401.23 214.203
 402.652 c 214.203 403.668 214.672 404.371 215.594 404.746 c 216.062 404.949
 216.344 404.996 218.109 405.23 c 219.094 405.355 219.406 405.574 219.406
 406.105 c 219.406 406.434 l 219.406 407.184 218.781 407.605 217.656 407.605
 c 216.484 407.605 215.922 407.168 215.812 406.199 c 214.547 406.199 l 214.578
 406.98 214.734 407.434 215.094 407.84 c 215.625 408.418 216.562 408.746
 217.703 408.746 c 219.641 408.746 220.656 407.996 220.656 406.605 c 220.656
 401.98 l 220.656 401.605 220.891 401.371 221.328 401.371 c 221.406 401.371
 221.469 401.371 221.609 401.402 c h
219.406 403.137 m 219.406 404.559 l 219 404.355 218.719 404.293 217.406
 404.121 c 216.062 403.918 215.516 403.496 215.516 402.684 c 215.516 401.887
 216.078 401.418 217.062 401.418 c 217.797 401.418 218.406 401.652 218.922
 402.121 c 219.297 402.465 219.406 402.73 219.406 403.137 c h
222.965 408.527 m 224.121 408.527 l 224.121 407.418 l 224.789 408.355 225.48
 408.746 226.539 408.746 c 227.559 408.746 228.184 408.387 228.652 407.559
 c 229.387 408.434 230.012 408.746 231.074 408.746 c 232.539 408.746 233.355
 407.98 233.355 406.559 c 233.355 400.668 l 232.09 400.668 l 232.09 406.09
 l 232.09 407.074 231.539 407.652 230.637 407.652 c 229.605 407.652 228.789
 406.746 228.789 405.605 c 228.789 400.668 l 227.527 400.668 l 227.527 406.09
 l 227.527 407.09 226.996 407.652 226.074 407.652 c 225.059 407.652 224.23
 406.746 224.23 405.605 c 224.23 400.668 l 222.965 400.668 l h
242.098 404.184 m 236.316 404.184 l 236.332 403.402 236.441 402.949 236.738
 402.496 c 237.16 401.84 237.832 401.48 238.629 401.48 c 239.629 401.48 
240.332 402.012 240.676 403.059 c 241.941 403.059 l 241.629 401.34 240.379
 400.324 238.582 400.324 c 236.379 400.324 235.004 401.918 235.004 404.496
 c 235.004 407.074 236.426 408.746 238.613 408.746 c 240.082 408.746 241.285
 407.98 241.785 406.684 c 242.02 406.105 242.098 405.371 242.098 404.184
 c h
236.348 405.199 m 240.754 405.199 l 240.77 405.23 240.77 405.262 240.77
 405.293 c 240.77 406.574 239.832 407.605 238.598 407.605 c 237.332 407.605
 236.457 406.652 236.348 405.199 c h
251.062 400.668 m 249.641 400.668 l 248.047 406.84 l 246.531 400.668 l 
245.125 400.668 l 242.844 408.527 l 244.219 408.527 l 245.828 402.402 l 
247.328 408.527 l 248.859 408.527 l 250.406 402.402 l 251.953 408.527 l 
253.375 408.527 l h
257.656 408.746 m 259.926 408.746 261.234 407.199 261.234 404.48 c 261.234
 401.902 259.879 400.324 257.676 400.324 c 255.441 400.324 254.129 401.902
 254.129 404.543 c 254.129 407.184 255.453 408.746 257.656 408.746 c h
257.676 407.605 m 256.281 407.605 255.426 406.434 255.426 404.543 c 255.426
 402.637 256.281 401.48 257.676 401.48 c 259.051 401.48 259.926 402.652 
259.926 404.496 c 259.926 406.449 259.078 407.605 257.676 407.605 c h
262.949 408.527 m 264.105 408.527 l 264.105 407.105 l 264.824 408.277 265.449
 408.746 266.246 408.746 c 266.422 408.746 266.527 408.73 266.73 408.715
 c 266.73 407.434 l 265.855 407.418 265.48 407.324 265.105 407.043 c 264.496
 406.605 264.219 405.871 264.219 404.746 c 264.219 400.668 l 262.949 400.668
 l h
269.023 411.605 m 269.023 405.199 l 272.352 408.527 l 273.961 408.527 l
 271.227 405.809 l 274.445 400.668 l 272.898 400.668 l 270.242 404.934 l
 269.023 403.73 l 269.023 400.668 l 267.789 400.668 l 267.789 411.605 l 
h
279.633 411.605 m 280.883 411.605 l 280.883 407.449 l 281.613 408.402 282.285
 408.746 283.398 408.746 c 284.93 408.746 285.883 407.934 285.883 406.605
 c 285.883 400.668 l 284.633 400.668 l 284.633 406.105 l 284.633 406.668
 284.477 407.043 284.113 407.293 c 283.82 407.527 283.41 407.652 283.008
 407.652 c 281.727 407.652 280.883 406.605 280.883 404.996 c 280.883 400.668
 l 279.633 400.668 l h
289.176 408.527 m 289.176 400.668 l 287.926 400.668 l 287.926 408.527 l
 h
289.176 411.605 m 289.176 410.027 l 287.906 410.027 l 287.906 411.605 l
 h
297.941 404.184 m 292.16 404.184 l 292.176 403.402 292.285 402.949 292.582
 402.496 c 293.004 401.84 293.676 401.48 294.473 401.48 c 295.473 401.48
 296.176 402.012 296.52 403.059 c 297.785 403.059 l 297.473 401.34 296.223
 400.324 294.426 400.324 c 292.223 400.324 290.848 401.918 290.848 404.496
 c 290.848 407.074 292.27 408.746 294.457 408.746 c 295.926 408.746 297.129
 407.98 297.629 406.684 c 297.863 406.105 297.941 405.371 297.941 404.184
 c h
292.191 405.199 m 296.598 405.199 l 296.613 405.23 296.613 405.262 296.613
 405.293 c 296.613 406.574 295.676 407.605 294.441 407.605 c 293.176 407.605
 292.301 406.652 292.191 405.199 c h
299.625 408.527 m 300.781 408.527 l 300.781 407.105 l 301.5 408.277 302.125
 408.746 302.922 408.746 c 303.094 408.746 303.203 408.73 303.406 408.715
 c 303.406 407.434 l 302.531 407.418 302.156 407.324 301.781 407.043 c 301.172
 406.605 300.891 405.871 300.891 404.746 c 300.891 400.668 l 299.625 400.668
 l h
311.617 401.402 m 311.617 400.465 l 311.215 400.355 311.012 400.324 310.762
 400.324 c 309.949 400.324 309.559 400.684 309.465 401.48 c 308.59 400.668
 307.789 400.324 306.789 400.324 c 305.215 400.324 304.215 401.23 304.215
 402.652 c 304.215 403.668 304.684 404.371 305.605 404.746 c 306.074 404.949
 306.355 404.996 308.117 405.23 c 309.105 405.355 309.414 405.574 309.414
 406.105 c 309.414 406.434 l 309.414 407.184 308.789 407.605 307.664 407.605
 c 306.492 407.605 305.934 407.168 305.824 406.199 c 304.559 406.199 l 304.59
 406.98 304.742 407.434 305.105 407.84 c 305.637 408.418 306.574 408.746
 307.715 408.746 c 309.652 408.746 310.664 407.996 310.664 406.605 c 310.664
 401.98 l 310.664 401.605 310.902 401.371 311.34 401.371 c 311.414 401.371
 311.48 401.371 311.617 401.402 c h
309.414 403.137 m 309.414 404.559 l 309.012 404.355 308.73 404.293 307.414
 404.121 c 306.074 403.918 305.527 403.496 305.527 402.684 c 305.527 401.887
 306.09 401.418 307.074 401.418 c 307.809 401.418 308.414 401.652 308.934
 402.121 c 309.309 402.465 309.414 402.73 309.414 403.137 c h
312.961 408.527 m 314.113 408.527 l 314.113 407.105 l 314.836 408.277 315.461
 408.746 316.258 408.746 c 316.43 408.746 316.535 408.73 316.738 408.715
 c 316.738 407.434 l 315.863 407.418 315.488 407.324 315.113 407.043 c 314.508
 406.605 314.227 405.871 314.227 404.746 c 314.227 400.668 l 312.961 400.668
 l h
323.984 405.887 m 322.734 405.887 l 322.578 406.98 321.922 407.605 320.859
 407.605 c 319.5 407.605 318.688 406.434 318.688 404.465 c 318.688 402.605
 319.516 401.48 320.891 401.48 c 321.969 401.48 322.609 402.105 322.812 
403.371 c 324.078 403.371 l 323.922 401.449 322.734 400.324 320.859 400.324
 c 318.734 400.324 317.391 401.934 317.391 404.465 c 317.391 407.074 318.766
 408.746 320.875 408.746 c 321.984 408.746 322.922 408.324 323.469 407.59
 c 323.766 407.152 323.922 406.652 323.984 405.887 c h
325.469 411.605 m 326.719 411.605 l 326.719 407.449 l 327.453 408.402 328.125
 408.746 329.234 408.746 c 330.766 408.746 331.719 407.934 331.719 406.605
 c 331.719 400.668 l 330.469 400.668 l 330.469 406.105 l 330.469 406.668
 330.312 407.043 329.953 407.293 c 329.656 407.527 329.25 407.652 328.844
 407.652 c 327.562 407.652 326.719 406.605 326.719 404.996 c 326.719 400.668
 l 325.469 400.668 l h
338.574 408.527 m 339.934 408.527 l 336.434 399.012 l 336.199 398.387 335.965
 398.059 335.574 397.777 c 335.246 397.527 334.824 397.402 334.418 397.402
 c 334.074 397.402 333.824 397.465 333.574 397.59 c 333.574 398.715 l 333.84
 398.652 334.059 398.621 334.23 398.621 c 334.762 398.621 335.043 398.84
 335.23 399.387 c 335.715 400.637 l 333.059 408.527 l 334.402 408.527 l 
336.402 402.402 l f
9.012 300.133 m 9.012 301.211 l 18.141 301.211 l 18.141 300.133 l h
14.594 309.094 m 15.105 309.094 l 15.105 304.121 l 15.855 304.176 16.426
 304.402 16.809 304.805 c 17.195 305.203 17.391 305.758 17.391 306.469 c
 17.391 306.883 17.34 307.285 17.238 307.68 c 17.141 308.066 16.988 308.457
 16.781 308.844 c 17.809 308.844 l 17.969 308.445 18.09 308.047 18.176 307.641
 c 18.266 307.23 18.309 306.82 18.309 306.402 c 18.309 305.363 18.008 304.535
 17.398 303.922 c 16.785 303.305 15.961 302.996 14.918 302.996 c 13.848 
302.996 12.996 303.289 12.363 303.871 c 11.734 304.457 11.418 305.238 11.418
 306.219 c 11.418 307.102 11.703 307.805 12.273 308.316 c 12.84 308.836 
13.613 309.094 14.594 309.094 c h
14.266 308.016 m 13.68 308.004 13.211 307.836 12.855 307.516 c 12.504 307.191
 12.328 306.766 12.328 306.23 c 12.328 305.629 12.496 305.145 12.844 304.785
 c 13.184 304.43 13.664 304.223 14.281 304.172 c h
11.578 310.086 m 11.578 311.227 l 17.078 313.27 l 11.578 315.336 l 11.578
 316.477 l 18.141 314.008 l 18.141 312.535 l h
14.594 323.574 m 15.105 323.574 l 15.105 318.605 l 15.855 318.66 16.426
 318.887 16.809 319.285 c 17.195 319.688 17.391 320.242 17.391 320.949 c
 17.391 321.367 17.34 321.77 17.238 322.16 c 17.141 322.555 16.988 322.941
 16.781 323.324 c 17.809 323.324 l 17.969 322.93 18.09 322.527 18.176 322.121
 c 18.266 321.719 18.309 321.305 18.309 320.891 c 18.309 319.848 18.008 
319.02 17.398 318.402 c 16.785 317.789 15.961 317.48 14.918 317.48 c 13.848
 317.48 12.996 317.773 12.363 318.355 c 11.734 318.941 11.418 319.723 11.418
 320.699 c 11.418 321.586 11.703 322.285 12.273 322.805 c 12.84 323.316 
13.613 323.574 14.594 323.574 c h
14.266 322.496 m 13.68 322.488 13.211 322.32 12.855 321.996 c 12.504 321.676
 12.328 321.246 12.328 320.719 c 12.328 320.113 12.496 319.633 12.844 319.27
 c 13.184 318.91 13.664 318.707 14.281 318.652 c h
9.012 325.336 m 9.012 326.41 l 18.141 326.41 l 18.141 325.336 l h
17.141 332.844 m 17.141 334.777 l 10.469 334.777 l 10.891 332.672 l 9.812
 332.672 l 9.387 334.766 l 9.387 335.949 l 17.141 335.949 l 17.141 337.891
 l 18.141 337.891 l 18.141 332.844 l 17.141 332.844 l f
9.012 168.133 m 9.012 169.211 l 18.141 169.211 l 18.141 168.133 l h
14.594 177.094 m 15.105 177.094 l 15.105 172.121 l 15.855 172.176 16.426
 172.402 16.809 172.805 c 17.195 173.203 17.391 173.758 17.391 174.469 c
 17.391 174.883 17.34 175.285 17.238 175.68 c 17.141 176.066 16.988 176.457
 16.781 176.844 c 17.809 176.844 l 17.969 176.445 18.09 176.047 18.176 175.641
 c 18.266 175.23 18.309 174.82 18.309 174.402 c 18.309 173.363 18.008 172.535
 17.398 171.922 c 16.785 171.305 15.961 170.996 14.918 170.996 c 13.848 
170.996 12.996 171.289 12.363 171.871 c 11.734 172.457 11.418 173.238 11.418
 174.219 c 11.418 175.102 11.703 175.805 12.273 176.316 c 12.84 176.836 
13.613 177.094 14.594 177.094 c h
14.266 176.016 m 13.68 176.004 13.211 175.836 12.855 175.516 c 12.504 175.191
 12.328 174.766 12.328 174.23 c 12.328 173.629 12.496 173.145 12.844 172.785
 c 13.184 172.43 13.664 172.223 14.281 172.172 c h
11.578 178.086 m 11.578 179.227 l 17.078 181.27 l 11.578 183.336 l 11.578
 184.477 l 18.141 182.008 l 18.141 180.535 l h
14.594 191.574 m 15.105 191.574 l 15.105 186.605 l 15.855 186.66 16.426
 186.887 16.809 187.285 c 17.195 187.688 17.391 188.242 17.391 188.949 c
 17.391 189.367 17.34 189.77 17.238 190.16 c 17.141 190.555 16.988 190.941
 16.781 191.324 c 17.809 191.324 l 17.969 190.93 18.09 190.527 18.176 190.121
 c 18.266 189.719 18.309 189.305 18.309 188.891 c 18.309 187.848 18.008 
187.02 17.398 186.402 c 16.785 185.789 15.961 185.48 14.918 185.48 c 13.848
 185.48 12.996 185.773 12.363 186.355 c 11.734 186.941 11.418 187.723 11.418
 188.699 c 11.418 189.586 11.703 190.285 12.273 190.805 c 12.84 191.316 
13.613 191.574 14.594 191.574 c h
14.266 190.496 m 13.68 190.488 13.211 190.32 12.855 189.996 c 12.504 189.676
 12.328 189.246 12.328 188.719 c 12.328 188.113 12.496 187.633 12.844 187.27
 c 13.184 186.91 13.664 186.707 14.281 186.652 c h
9.012 193.336 m 9.012 194.41 l 18.141 194.41 l 18.141 193.336 l h
17.141 201.652 m 17.141 205.797 l 18.141 205.797 l 18.141 200.23 l 17.141
 200.23 l 16.68 200.68 16.059 201.293 15.273 202.066 c 14.484 202.844 13.977
 203.332 13.746 203.527 c 13.332 203.914 12.973 204.184 12.676 204.336 c
 12.383 204.484 12.094 204.562 11.809 204.562 c 11.344 204.562 10.961 204.395
 10.668 204.066 c 10.379 203.738 10.23 203.316 10.23 202.797 c 10.23 202.422
 10.293 202.027 10.418 201.613 c 10.543 201.203 10.742 200.766 11.016 200.297
 c 9.812 200.297 l 9.625 200.773 9.48 201.219 9.383 201.633 c 9.281 202.043
 9.23 202.422 9.23 202.766 c 9.23 203.672 9.457 204.395 9.914 204.938 c 
10.363 205.477 10.973 205.746 11.73 205.746 c 12.086 205.746 12.426 205.68
 12.746 205.547 c 13.07 205.41 13.453 205.164 13.891 204.812 c 14.004 204.707
 14.332 204.395 14.871 203.871 c 15.414 203.352 16.168 202.613 17.141 201.652
 c f
9.012 44.133 m 9.012 45.211 l 18.141 45.211 l 18.141 44.133 l h
14.594 53.094 m 15.105 53.094 l 15.105 48.121 l 15.855 48.176 16.426 48.402
 16.809 48.801 c 17.195 49.203 17.391 49.758 17.391 50.469 c 17.391 50.883
 17.34 51.285 17.238 51.676 c 17.141 52.07 16.988 52.457 16.781 52.844 c
 17.809 52.844 l 17.969 52.445 18.09 52.043 18.176 51.641 c 18.266 51.23
 18.309 50.82 18.309 50.406 c 18.309 49.363 18.008 48.535 17.398 47.918 
c 16.785 47.305 15.961 46.996 14.918 46.996 c 13.848 46.996 12.996 47.289
 12.363 47.871 c 11.734 48.457 11.418 49.238 11.418 50.219 c 11.418 51.102
 11.703 51.801 12.273 52.32 c 12.84 52.836 13.613 53.094 14.594 53.094 c
 h
14.266 52.016 m 13.68 52.004 13.211 51.836 12.855 51.516 c 12.504 51.191
 12.328 50.766 12.328 50.23 c 12.328 49.629 12.496 49.148 12.844 48.785 
c 13.184 48.426 13.664 48.223 14.281 48.168 c h
11.578 54.086 m 11.578 55.223 l 17.078 57.273 l 11.578 59.336 l 11.578 
60.473 l 18.141 58.008 l 18.141 56.535 l h
14.594 67.578 m 15.105 67.578 l 15.105 62.605 l 15.855 62.66 16.426 62.887
 16.809 63.285 c 17.195 63.688 17.391 64.242 17.391 64.953 c 17.391 65.367
 17.34 65.773 17.238 66.16 c 17.141 66.551 16.988 66.941 16.781 67.328 c
 17.809 67.328 l 17.969 66.93 18.09 66.531 18.176 66.121 c 18.266 65.719
 18.309 65.305 18.309 64.891 c 18.309 63.848 18.008 63.02 17.398 62.406 
c 16.785 61.789 15.961 61.48 14.918 61.48 c 13.848 61.48 12.996 61.773 12.363
 62.355 c 11.734 62.941 11.418 63.723 11.418 64.703 c 11.418 65.586 11.703
 66.285 12.273 66.801 c 12.84 67.32 13.613 67.578 14.594 67.578 c h
14.266 66.496 m 13.68 66.488 13.211 66.32 12.855 65.996 c 12.504 65.676
 12.328 65.246 12.328 64.719 c 12.328 64.113 12.496 63.633 12.844 63.273
 c 13.184 62.91 13.664 62.707 14.281 62.656 c h
9.012 69.336 m 9.012 70.41 l 18.141 70.41 l 18.141 69.336 l h
13.418 80.23 m 13.543 80.793 13.797 81.234 14.176 81.551 c 14.559 81.871
 15.031 82.031 15.594 82.031 c 16.457 82.031 17.125 81.73 17.598 81.141 
c 18.074 80.543 18.309 79.703 18.309 78.605 c 18.309 78.242 18.273 77.863
 18.203 77.473 c 18.129 77.086 18.02 76.684 17.871 76.281 c 16.73 76.281
 l 16.918 76.602 17.062 76.961 17.16 77.348 c 17.262 77.738 17.309 78.148
 17.309 78.578 c 17.309 79.316 17.164 79.883 16.871 80.273 c 16.582 80.66
 16.156 80.855 15.594 80.855 c 15.082 80.855 14.68 80.676 14.391 80.309 
c 14.098 79.945 13.953 79.445 13.953 78.809 c 13.953 77.781 l 12.98 77.781
 l 12.98 78.855 l 12.98 79.43 12.863 79.871 12.633 80.184 c 12.398 80.496
 12.059 80.656 11.621 80.656 c 11.176 80.656 10.832 80.496 10.594 80.176
 c 10.352 79.859 10.23 79.406 10.23 78.809 c 10.23 78.477 10.266 78.125 
10.336 77.758 c 10.402 77.387 10.508 76.977 10.656 76.531 c 9.605 76.531
 l 9.48 76.988 9.387 77.41 9.324 77.801 c 9.262 78.195 9.23 78.559 9.23 
78.906 c 9.23 79.809 9.438 80.523 9.844 81.043 c 10.246 81.566 10.801 81.828
 11.496 81.828 c 11.988 81.828 12.398 81.688 12.73 81.41 c 13.066 81.137
 13.293 80.742 13.418 80.23 c f
0.882353 0.305882 1 rg
60 353 424 -57 re f
0 g
254.73 320.27 m 254.73 321.098 l 254.199 320.301 253.496 319.926 252.496
 319.926 c 251.496 319.926 250.512 320.441 249.965 321.207 c 249.418 321.988
 249.09 323.098 249.09 324.207 c 249.09 326.645 250.559 328.504 252.496 
328.504 c 253.496 328.504 254.199 328.129 254.73 327.316 c 254.73 331.207
 l 256.824 331.207 l 256.824 320.27 l h
252.965 326.754 m 251.902 326.754 251.184 325.707 251.184 324.207 c 251.184
 322.707 251.902 321.676 252.965 321.676 c 254.012 321.676 254.73 322.707
 254.73 324.176 c 254.73 325.707 254.027 326.754 252.965 326.754 c h
265.676 323.66 m 260.258 323.66 l 260.27 322.895 260.348 322.535 260.551
 322.238 c 260.848 321.785 261.336 321.535 261.926 321.535 c 262.691 321.535
 263.27 321.91 263.535 322.551 c 265.598 322.551 l 265.133 320.957 263.66
 319.926 261.848 319.926 c 259.551 319.926 258.145 321.52 258.145 324.113
 c 258.145 326.832 259.566 328.504 261.895 328.504 c 263.535 328.504 264.836
 327.613 265.383 326.145 c 265.566 325.582 265.691 324.832 265.691 324.02
 c 265.691 323.91 265.691 323.832 265.676 323.66 c h
260.27 325.051 m 263.508 325.051 l 263.461 325.613 263.363 325.926 263.176
 326.223 c 262.883 326.645 262.395 326.895 261.863 326.895 c 260.941 326.895
 260.41 326.285 260.27 325.051 c h
271.406 320.27 m 269.203 320.27 l 266.359 328.363 l 268.594 328.363 l 270.344
 322.441 l 271.969 328.363 l 274.203 328.363 l h
277.605 328.363 m 277.605 320.27 l 275.496 320.27 l 275.496 328.363 l h
277.605 331.207 m 277.605 329.332 l 275.496 329.332 l 275.496 331.207 l
 h
286.496 325.332 m 284.48 325.332 l 284.246 326.41 283.84 326.816 282.98
 326.816 c 282.387 326.816 281.918 326.566 281.684 326.113 c 281.434 325.645
 281.277 324.926 281.277 324.16 c 281.277 322.582 281.918 321.613 282.98
 321.613 c 283.793 321.613 284.215 322.02 284.48 323.082 c 286.496 323.082
 l 286.309 321.145 284.934 319.926 282.98 319.926 c 280.574 319.926 279.184
 321.488 279.184 324.16 c 279.184 326.91 280.59 328.504 282.996 328.504 
c 285.027 328.504 286.355 327.316 286.496 325.332 c h
294.867 323.66 m 289.445 323.66 l 289.461 322.895 289.539 322.535 289.742
 322.238 c 290.039 321.785 290.523 321.535 291.117 321.535 c 291.883 321.535
 292.461 321.91 292.727 322.551 c 294.789 322.551 l 294.32 320.957 292.852
 319.926 291.039 319.926 c 288.742 319.926 287.336 321.52 287.336 324.113
 c 287.336 326.832 288.758 328.504 291.086 328.504 c 292.727 328.504 294.023
 327.613 294.57 326.145 c 294.758 325.582 294.883 324.832 294.883 324.02
 c 294.883 323.91 294.883 323.832 294.867 323.66 c h
289.461 325.051 m 292.695 325.051 l 292.648 325.613 292.555 325.926 292.367
 326.223 c 292.07 326.645 291.586 326.895 291.055 326.895 c 290.133 326.895
 289.602 326.285 289.461 325.051 c f
0.454902 0.196078 0.592157 rg
3 w
q 1 0 0 1 0 421 cm
60 -68 424 -57 re S Q
0.882353 0.305882 1 rg
65 212 131 -49 re f
0 g
97.066 188.332 m 95.051 188.332 l 94.816 189.41 94.41 189.816 93.551 189.816
 c 92.957 189.816 92.488 189.566 92.254 189.113 c 92.004 188.645 91.848 
187.926 91.848 187.16 c 91.848 185.582 92.488 184.613 93.551 184.613 c 94.363
 184.613 94.785 185.02 95.051 186.082 c 97.066 186.082 l 96.879 184.145 
95.504 182.926 93.551 182.926 c 91.145 182.926 89.754 184.488 89.754 187.16
 c 89.754 189.91 91.16 191.504 93.566 191.504 c 95.598 191.504 96.926 190.316
 97.066 188.332 c h
98.578 194.207 m 100.688 194.207 l 100.688 190.207 l 101.266 191.082 102.016
 191.504 103.047 191.504 c 103.73 191.504 104.406 191.285 104.871 190.895
 c 105.422 190.426 105.688 189.707 105.688 188.707 c 105.688 183.27 l 103.594
 183.27 l 103.594 188.223 l 103.594 188.738 103.531 188.957 103.355 189.223
 c 103.105 189.551 102.746 189.723 102.297 189.723 c 101.355 189.723 100.688
 189.066 100.688 188.129 c 100.688 183.27 l 98.578 183.27 l h
114.602 183.52 m 114.602 183.27 l 112.32 183.27 l 112.133 183.504 112.086
 183.66 112.086 184.082 c 111.352 183.316 110.523 182.926 109.617 182.926
 c 108.898 182.926 108.195 183.207 107.727 183.691 c 107.352 184.098 107.164
 184.66 107.164 185.348 c 107.164 186.816 107.945 187.629 109.555 187.91
 c 110.383 188.051 l 111.43 188.223 111.43 188.223 111.711 188.363 c 111.93
 188.488 112.07 188.723 112.07 189.004 c 112.07 189.535 111.664 189.816 
110.852 189.816 c 109.82 189.816 109.477 189.535 109.367 188.707 c 107.336
 188.707 l 107.477 190.582 108.617 191.504 110.805 191.504 c 112.992 191.504
 114.117 190.66 114.117 189.02 c 114.117 184.52 l 114.117 184.098 114.227
 183.863 114.602 183.52 c h
112.07 186.52 m 112.07 187.098 l 111.82 186.973 111.742 186.941 111.18 
186.832 c 110.461 186.707 l 109.586 186.52 109.258 186.223 109.258 185.598
 c 109.258 184.988 109.695 184.613 110.398 184.613 c 111.461 184.613 112.07
 185.316 112.07 186.52 c h
116.02 191.363 m 118.129 191.363 l 118.129 190.207 l 118.723 191.098 119.453
 191.504 120.551 191.504 c 122.285 191.504 123.27 190.488 123.27 188.707
 c 123.27 183.27 l 121.176 183.27 l 121.176 188.27 l 121.176 189.223 120.723
 189.723 119.816 189.723 c 118.801 189.723 118.129 189.082 118.129 188.129
 c 118.129 183.27 l 116.02 183.27 l h
125.184 191.363 m 127.293 191.363 l 127.293 190.207 l 127.887 191.098 128.621
 191.504 129.715 191.504 c 131.449 191.504 132.434 190.488 132.434 188.707
 c 132.434 183.27 l 130.34 183.27 l 130.34 188.27 l 130.34 189.223 129.887
 189.723 128.98 189.723 c 127.965 189.723 127.293 189.082 127.293 188.129
 c 127.293 183.27 l 125.184 183.27 l h
141.27 186.66 m 135.848 186.66 l 135.863 185.895 135.941 185.535 136.145
 185.238 c 136.441 184.785 136.926 184.535 137.52 184.535 c 138.285 184.535
 138.863 184.91 139.129 185.551 c 141.191 185.551 l 140.723 183.957 139.254
 182.926 137.441 182.926 c 135.145 182.926 133.738 184.52 133.738 187.113
 c 133.738 189.832 135.16 191.504 137.488 191.504 c 139.129 191.504 140.426
 190.613 140.973 189.145 c 141.16 188.582 141.285 187.832 141.285 187.02
 c 141.285 186.91 141.285 186.832 141.27 186.66 c h
135.863 188.051 m 139.098 188.051 l 139.051 188.613 138.957 188.926 138.77
 189.223 c 138.473 189.645 137.988 189.895 137.457 189.895 c 136.535 189.895
 136.004 189.285 135.863 188.051 c h
144.859 194.207 m 144.859 183.27 l 142.75 183.27 l 142.75 194.207 l h
157.668 188.754 m 155.637 188.754 l 155.621 189.488 155.137 189.848 154.121
 189.848 c 153.387 189.848 152.902 189.551 152.902 189.098 c 152.902 188.77
 153.059 188.66 153.652 188.473 c 156.293 187.707 l 157.371 187.395 157.887
 186.723 157.887 185.676 c 157.887 184.879 157.527 184.129 156.934 183.645
 c 156.324 183.16 155.48 182.926 154.355 182.926 c 151.887 182.926 150.59
 183.848 150.527 185.629 c 152.574 185.629 l 152.668 185.191 152.762 185.02
 152.98 184.863 c 153.262 184.676 153.684 184.582 154.23 184.582 c 155.199
 184.582 155.793 184.879 155.793 185.363 c 155.793 185.707 155.605 185.863
 155.09 186.035 c 152.574 186.816 l 151.793 187.066 151.543 187.207 151.262
 187.488 c 150.98 187.801 150.809 188.27 150.809 188.801 c 150.809 190.473
 152.09 191.504 154.137 191.504 c 156.309 191.504 157.637 190.473 157.668
 188.754 c h
166.289 186.66 m 160.867 186.66 l 160.883 185.895 160.961 185.535 161.164
 185.238 c 161.461 184.785 161.945 184.535 162.539 184.535 c 163.305 184.535
 163.883 184.91 164.148 185.551 c 166.211 185.551 l 165.742 183.957 164.273
 182.926 162.461 182.926 c 160.164 182.926 158.758 184.52 158.758 187.113
 c 158.758 189.832 160.18 191.504 162.508 191.504 c 164.148 191.504 165.445
 190.613 165.992 189.145 c 166.18 188.582 166.305 187.832 166.305 187.02
 c 166.305 186.91 166.305 186.832 166.289 186.66 c h
160.883 188.051 m 164.117 188.051 l 164.07 188.613 163.977 188.926 163.789
 189.223 c 163.492 189.645 163.008 189.895 162.477 189.895 c 161.555 189.895
 161.023 189.285 160.883 188.051 c h
171.285 191.207 m 171.285 189.816 l 170.113 189.816 l 170.113 185.395 l
 170.113 184.676 170.254 184.52 170.801 184.52 c 170.957 184.52 171.082 
184.535 171.285 184.566 c 171.285 183.082 l 170.91 182.973 170.535 182.926
 170.066 182.926 c 168.691 182.926 168.02 183.551 168.02 184.832 c 168.02
 189.816 l 166.973 189.816 l 166.973 191.207 l 168.02 191.207 l 168.02 193.379
 l 170.113 193.379 l 170.113 191.207 l f
0.454902 0.196078 0.592157 rg
q 1 0 0 1 0 421 cm
65 -209 131 -49 re S Q
0.882353 0.305882 1 rg
206.5 212 131 -49 re f
0 g
238.566 188.332 m 236.551 188.332 l 236.316 189.41 235.91 189.816 235.051
 189.816 c 234.453 189.816 233.988 189.566 233.754 189.113 c 233.504 188.645
 233.348 187.926 233.348 187.16 c 233.348 185.582 233.988 184.613 235.051
 184.613 c 235.863 184.613 236.285 185.02 236.551 186.082 c 238.566 186.082
 l 238.379 184.145 237.004 182.926 235.051 182.926 c 232.645 182.926 231.254
 184.488 231.254 187.16 c 231.254 189.91 232.66 191.504 235.066 191.504 
c 237.098 191.504 238.426 190.316 238.566 188.332 c h
240.074 194.207 m 242.188 194.207 l 242.188 190.207 l 242.766 191.082 243.516
 191.504 244.547 191.504 c 245.234 191.504 245.902 191.285 246.371 190.895
 c 246.922 190.426 247.188 189.707 247.188 188.707 c 247.188 183.27 l 245.094
 183.27 l 245.094 188.223 l 245.094 188.738 245.027 188.957 244.859 189.223
 c 244.609 189.551 244.246 189.723 243.797 189.723 c 242.859 189.723 242.188
 189.066 242.188 188.129 c 242.188 183.27 l 240.074 183.27 l h
256.102 183.52 m 256.102 183.27 l 253.82 183.27 l 253.633 183.504 253.586
 183.66 253.586 184.082 c 252.852 183.316 252.023 182.926 251.117 182.926
 c 250.398 182.926 249.695 183.207 249.227 183.691 c 248.852 184.098 248.664
 184.66 248.664 185.348 c 248.664 186.816 249.445 187.629 251.055 187.91
 c 251.883 188.051 l 252.93 188.223 252.93 188.223 253.211 188.363 c 253.43
 188.488 253.57 188.723 253.57 189.004 c 253.57 189.535 253.164 189.816 
252.352 189.816 c 251.32 189.816 250.977 189.535 250.867 188.707 c 248.836
 188.707 l 248.977 190.582 250.117 191.504 252.305 191.504 c 254.492 191.504
 255.617 190.66 255.617 189.02 c 255.617 184.52 l 255.617 184.098 255.727
 183.863 256.102 183.52 c h
253.57 186.52 m 253.57 187.098 l 253.32 186.973 253.242 186.941 252.68 
186.832 c 251.961 186.707 l 251.086 186.52 250.758 186.223 250.758 185.598
 c 250.758 184.988 251.195 184.613 251.898 184.613 c 252.961 184.613 253.57
 185.316 253.57 186.52 c h
257.52 191.363 m 259.629 191.363 l 259.629 190.207 l 260.223 191.098 260.957
 191.504 262.051 191.504 c 263.785 191.504 264.77 190.488 264.77 188.707
 c 264.77 183.27 l 262.676 183.27 l 262.676 188.27 l 262.676 189.223 262.223
 189.723 261.316 189.723 c 260.301 189.723 259.629 189.082 259.629 188.129
 c 259.629 183.27 l 257.52 183.27 l h
266.684 191.363 m 268.793 191.363 l 268.793 190.207 l 269.387 191.098 270.121
 191.504 271.215 191.504 c 272.949 191.504 273.934 190.488 273.934 188.707
 c 273.934 183.27 l 271.84 183.27 l 271.84 188.27 l 271.84 189.223 271.387
 189.723 270.48 189.723 c 269.465 189.723 268.793 189.082 268.793 188.129
 c 268.793 183.27 l 266.684 183.27 l h
282.77 186.66 m 277.348 186.66 l 277.363 185.895 277.441 185.535 277.645
 185.238 c 277.941 184.785 278.426 184.535 279.02 184.535 c 279.785 184.535
 280.363 184.91 280.629 185.551 c 282.691 185.551 l 282.223 183.957 280.754
 182.926 278.941 182.926 c 276.645 182.926 275.238 184.52 275.238 187.113
 c 275.238 189.832 276.66 191.504 278.988 191.504 c 280.629 191.504 281.926
 190.613 282.473 189.145 c 282.66 188.582 282.785 187.832 282.785 187.02
 c 282.785 186.91 282.785 186.832 282.77 186.66 c h
277.363 188.051 m 280.598 188.051 l 280.551 188.613 280.457 188.926 280.27
 189.223 c 279.973 189.645 279.488 189.895 278.957 189.895 c 278.035 189.895
 277.504 189.285 277.363 188.051 c h
286.359 194.207 m 286.359 183.27 l 284.25 183.27 l 284.25 194.207 l h
299.168 188.754 m 297.137 188.754 l 297.121 189.488 296.637 189.848 295.621
 189.848 c 294.887 189.848 294.402 189.551 294.402 189.098 c 294.402 188.77
 294.559 188.66 295.152 188.473 c 297.793 187.707 l 298.871 187.395 299.387
 186.723 299.387 185.676 c 299.387 184.879 299.027 184.129 298.434 183.645
 c 297.824 183.16 296.98 182.926 295.855 182.926 c 293.387 182.926 292.09
 183.848 292.027 185.629 c 294.074 185.629 l 294.168 185.191 294.262 185.02
 294.48 184.863 c 294.762 184.676 295.184 184.582 295.73 184.582 c 296.699
 184.582 297.293 184.879 297.293 185.363 c 297.293 185.707 297.105 185.863
 296.59 186.035 c 294.074 186.816 l 293.293 187.066 293.043 187.207 292.762
 187.488 c 292.48 187.801 292.309 188.27 292.309 188.801 c 292.309 190.473
 293.59 191.504 295.637 191.504 c 297.809 191.504 299.137 190.473 299.168
 188.754 c h
307.789 186.66 m 302.367 186.66 l 302.383 185.895 302.461 185.535 302.664
 185.238 c 302.961 184.785 303.445 184.535 304.039 184.535 c 304.805 184.535
 305.383 184.91 305.648 185.551 c 307.711 185.551 l 307.242 183.957 305.773
 182.926 303.961 182.926 c 301.664 182.926 300.258 184.52 300.258 187.113
 c 300.258 189.832 301.68 191.504 304.008 191.504 c 305.648 191.504 306.945
 190.613 307.492 189.145 c 307.68 188.582 307.805 187.832 307.805 187.02
 c 307.805 186.91 307.805 186.832 307.789 186.66 c h
302.383 188.051 m 305.617 188.051 l 305.57 188.613 305.477 188.926 305.289
 189.223 c 304.992 189.645 304.508 189.895 303.977 189.895 c 303.055 189.895
 302.523 189.285 302.383 188.051 c h
312.785 191.207 m 312.785 189.816 l 311.613 189.816 l 311.613 185.395 l
 311.613 184.676 311.754 184.52 312.301 184.52 c 312.457 184.52 312.582 
184.535 312.785 184.566 c 312.785 183.082 l 312.41 182.973 312.035 182.926
 311.566 182.926 c 310.191 182.926 309.52 183.551 309.52 184.832 c 309.52
 189.816 l 308.473 189.816 l 308.473 191.207 l 309.52 191.207 l 309.52 193.379
 l 311.613 193.379 l 311.613 191.207 l f
0.454902 0.196078 0.592157 rg
q 1 0 0 1 0 421 cm
206.5 -209 131 -49 re S Q
0.882353 0.305882 1 rg
348 212 131 -49 re f
0 g
380.066 188.332 m 378.051 188.332 l 377.816 189.41 377.41 189.816 376.551
 189.816 c 375.953 189.816 375.488 189.566 375.254 189.113 c 375.004 188.645
 374.848 187.926 374.848 187.16 c 374.848 185.582 375.488 184.613 376.551
 184.613 c 377.363 184.613 377.785 185.02 378.051 186.082 c 380.066 186.082
 l 379.879 184.145 378.504 182.926 376.551 182.926 c 374.145 182.926 372.754
 184.488 372.754 187.16 c 372.754 189.91 374.16 191.504 376.566 191.504 
c 378.598 191.504 379.926 190.316 380.066 188.332 c h
381.574 194.207 m 383.688 194.207 l 383.688 190.207 l 384.266 191.082 385.016
 191.504 386.047 191.504 c 386.734 191.504 387.402 191.285 387.871 190.895
 c 388.422 190.426 388.688 189.707 388.688 188.707 c 388.688 183.27 l 386.594
 183.27 l 386.594 188.223 l 386.594 188.738 386.527 188.957 386.359 189.223
 c 386.109 189.551 385.746 189.723 385.297 189.723 c 384.359 189.723 383.688
 189.066 383.688 188.129 c 383.688 183.27 l 381.574 183.27 l h
397.602 183.52 m 397.602 183.27 l 395.32 183.27 l 395.133 183.504 395.086
 183.66 395.086 184.082 c 394.352 183.316 393.523 182.926 392.617 182.926
 c 391.898 182.926 391.195 183.207 390.727 183.691 c 390.352 184.098 390.164
 184.66 390.164 185.348 c 390.164 186.816 390.945 187.629 392.555 187.91
 c 393.383 188.051 l 394.43 188.223 394.43 188.223 394.711 188.363 c 394.93
 188.488 395.07 188.723 395.07 189.004 c 395.07 189.535 394.664 189.816 
393.852 189.816 c 392.82 189.816 392.477 189.535 392.367 188.707 c 390.336
 188.707 l 390.477 190.582 391.617 191.504 393.805 191.504 c 395.992 191.504
 397.117 190.66 397.117 189.02 c 397.117 184.52 l 397.117 184.098 397.227
 183.863 397.602 183.52 c h
395.07 186.52 m 395.07 187.098 l 394.82 186.973 394.742 186.941 394.18 
186.832 c 393.461 186.707 l 392.586 186.52 392.258 186.223 392.258 185.598
 c 392.258 184.988 392.695 184.613 393.398 184.613 c 394.461 184.613 395.07
 185.316 395.07 186.52 c h
399.02 191.363 m 401.129 191.363 l 401.129 190.207 l 401.723 191.098 402.457
 191.504 403.551 191.504 c 405.285 191.504 406.27 190.488 406.27 188.707
 c 406.27 183.27 l 404.176 183.27 l 404.176 188.27 l 404.176 189.223 403.723
 189.723 402.816 189.723 c 401.801 189.723 401.129 189.082 401.129 188.129
 c 401.129 183.27 l 399.02 183.27 l h
408.184 191.363 m 410.293 191.363 l 410.293 190.207 l 410.887 191.098 411.621
 191.504 412.715 191.504 c 414.449 191.504 415.434 190.488 415.434 188.707
 c 415.434 183.27 l 413.34 183.27 l 413.34 188.27 l 413.34 189.223 412.887
 189.723 411.98 189.723 c 410.965 189.723 410.293 189.082 410.293 188.129
 c 410.293 183.27 l 408.184 183.27 l h
424.27 186.66 m 418.848 186.66 l 418.863 185.895 418.941 185.535 419.145
 185.238 c 419.441 184.785 419.926 184.535 420.52 184.535 c 421.285 184.535
 421.863 184.91 422.129 185.551 c 424.191 185.551 l 423.723 183.957 422.254
 182.926 420.441 182.926 c 418.145 182.926 416.738 184.52 416.738 187.113
 c 416.738 189.832 418.16 191.504 420.488 191.504 c 422.129 191.504 423.426
 190.613 423.973 189.145 c 424.16 188.582 424.285 187.832 424.285 187.02
 c 424.285 186.91 424.285 186.832 424.27 186.66 c h
418.863 188.051 m 422.098 188.051 l 422.051 188.613 421.957 188.926 421.77
 189.223 c 421.473 189.645 420.988 189.895 420.457 189.895 c 419.535 189.895
 419.004 189.285 418.863 188.051 c h
427.859 194.207 m 427.859 183.27 l 425.75 183.27 l 425.75 194.207 l h
440.668 188.754 m 438.637 188.754 l 438.621 189.488 438.137 189.848 437.121
 189.848 c 436.387 189.848 435.902 189.551 435.902 189.098 c 435.902 188.77
 436.059 188.66 436.652 188.473 c 439.293 187.707 l 440.371 187.395 440.887
 186.723 440.887 185.676 c 440.887 184.879 440.527 184.129 439.934 183.645
 c 439.324 183.16 438.48 182.926 437.355 182.926 c 434.887 182.926 433.59
 183.848 433.527 185.629 c 435.574 185.629 l 435.668 185.191 435.762 185.02
 435.98 184.863 c 436.262 184.676 436.684 184.582 437.23 184.582 c 438.199
 184.582 438.793 184.879 438.793 185.363 c 438.793 185.707 438.605 185.863
 438.09 186.035 c 435.574 186.816 l 434.793 187.066 434.543 187.207 434.262
 187.488 c 433.98 187.801 433.809 188.27 433.809 188.801 c 433.809 190.473
 435.09 191.504 437.137 191.504 c 439.309 191.504 440.637 190.473 440.668
 188.754 c h
449.289 186.66 m 443.867 186.66 l 443.883 185.895 443.961 185.535 444.164
 185.238 c 444.461 184.785 444.945 184.535 445.539 184.535 c 446.305 184.535
 446.883 184.91 447.148 185.551 c 449.211 185.551 l 448.742 183.957 447.273
 182.926 445.461 182.926 c 443.164 182.926 441.758 184.52 441.758 187.113
 c 441.758 189.832 443.18 191.504 445.508 191.504 c 447.148 191.504 448.445
 190.613 448.992 189.145 c 449.18 188.582 449.305 187.832 449.305 187.02
 c 449.305 186.91 449.305 186.832 449.289 186.66 c h
443.883 188.051 m 447.117 188.051 l 447.07 188.613 446.977 188.926 446.789
 189.223 c 446.492 189.645 446.008 189.895 445.477 189.895 c 444.555 189.895
 444.023 189.285 443.883 188.051 c h
454.285 191.207 m 454.285 189.816 l 453.113 189.816 l 453.113 185.395 l
 453.113 184.676 453.254 184.52 453.801 184.52 c 453.957 184.52 454.082 
184.535 454.285 184.566 c 454.285 183.082 l 453.91 182.973 453.535 182.926
 453.066 182.926 c 451.691 182.926 451.02 183.551 451.02 184.832 c 451.02
 189.816 l 449.973 189.816 l 449.973 191.207 l 451.02 191.207 l 451.02 193.379
 l 453.113 193.379 l 453.113 191.207 l f
0.454902 0.196078 0.592157 rg
q 1 0 0 1 0 421 cm
348 -209 131 -49 re S Q
0.882353 0.305882 1 rg
95.5 98 70 -34 re f
0 g
109.988 81.832 m 107.973 81.832 l 107.738 82.91 107.328 83.316 106.473 
83.316 c 105.879 83.316 105.41 83.066 105.176 82.613 c 104.926 82.145 104.77
 81.426 104.77 80.66 c 104.77 79.082 105.41 78.113 106.473 78.113 c 107.285
 78.113 107.703 78.52 107.973 79.582 c 109.988 79.582 l 109.801 77.645 108.426
 76.426 106.473 76.426 c 104.066 76.426 102.676 77.988 102.676 80.66 c 102.676
 83.41 104.078 85.004 106.488 85.004 c 108.52 85.004 109.848 83.816 109.988
 81.832 c h
111.496 87.707 m 113.609 87.707 l 113.609 83.707 l 114.188 84.582 114.938
 85.004 115.969 85.004 c 116.656 85.004 117.328 84.785 117.797 84.395 c 
118.344 83.926 118.609 83.207 118.609 82.207 c 118.609 76.77 l 116.516 76.77
 l 116.516 81.723 l 116.516 82.238 116.453 82.457 116.281 82.723 c 116.031
 83.051 115.672 83.223 115.219 83.223 c 114.281 83.223 113.609 82.566 113.609
 81.629 c 113.609 76.77 l 111.496 76.77 l h
127.523 77.02 m 127.523 76.77 l 125.242 76.77 l 125.055 77.004 125.008 
77.16 125.008 77.582 c 124.273 76.816 123.445 76.426 122.539 76.426 c 121.82
 76.426 121.117 76.707 120.648 77.191 c 120.273 77.598 120.086 78.16 120.086
 78.848 c 120.086 80.316 120.867 81.129 122.477 81.41 c 123.305 81.551 l
 124.352 81.723 124.352 81.723 124.633 81.863 c 124.852 81.988 124.992 82.223
 124.992 82.504 c 124.992 83.035 124.586 83.316 123.773 83.316 c 122.742
 83.316 122.398 83.035 122.289 82.207 c 120.258 82.207 l 120.398 84.082 
121.539 85.004 123.727 85.004 c 125.914 85.004 127.039 84.16 127.039 82.52
 c 127.039 78.02 l 127.039 77.598 127.148 77.363 127.523 77.02 c h
124.992 80.02 m 124.992 80.598 l 124.742 80.473 124.664 80.441 124.102 
80.332 c 123.383 80.207 l 122.508 80.02 122.18 79.723 122.18 79.098 c 122.18
 78.488 122.617 78.113 123.32 78.113 c 124.383 78.113 124.992 78.816 124.992
 80.02 c h
128.941 84.863 m 131.051 84.863 l 131.051 83.707 l 131.645 84.598 132.379
 85.004 133.473 85.004 c 135.207 85.004 136.191 83.988 136.191 82.207 c 
136.191 76.77 l 134.098 76.77 l 134.098 81.77 l 134.098 82.723 133.645 83.223
 132.738 83.223 c 131.723 83.223 131.051 82.582 131.051 81.629 c 131.051
 76.77 l 128.941 76.77 l h
138.105 84.863 m 140.215 84.863 l 140.215 83.707 l 140.809 84.598 141.543
 85.004 142.637 85.004 c 144.371 85.004 145.355 83.988 145.355 82.207 c 
145.355 76.77 l 143.262 76.77 l 143.262 81.77 l 143.262 82.723 142.809 83.223
 141.902 83.223 c 140.887 83.223 140.215 82.582 140.215 81.629 c 140.215
 76.77 l 138.105 76.77 l h
154.191 80.16 m 148.77 80.16 l 148.785 79.395 148.863 79.035 149.066 78.738
 c 149.363 78.285 149.848 78.035 150.441 78.035 c 151.207 78.035 151.785
 78.41 152.051 79.051 c 154.113 79.051 l 153.645 77.457 152.176 76.426 150.363
 76.426 c 148.066 76.426 146.66 78.02 146.66 80.613 c 146.66 83.332 148.082
 85.004 150.41 85.004 c 152.051 85.004 153.348 84.113 153.895 82.645 c 154.082
 82.082 154.207 81.332 154.207 80.52 c 154.207 80.41 154.207 80.332 154.191
 80.16 c h
148.785 81.551 m 152.02 81.551 l 151.973 82.113 151.879 82.426 151.691 
82.723 c 151.395 83.145 150.91 83.395 150.379 83.395 c 149.457 83.395 148.926
 82.785 148.785 81.551 c h
157.781 87.707 m 157.781 76.77 l 155.672 76.77 l 155.672 87.707 l f
0.454902 0.196078 0.592157 rg
q 1 0 0 1 0 421 cm
95.5 -323 70 -34 re S Q
0.882353 0.305882 1 rg
188.5 98 70 -34 re f
0 g
202.988 81.832 m 200.973 81.832 l 200.738 82.91 200.332 83.316 199.473 
83.316 c 198.879 83.316 198.41 83.066 198.176 82.613 c 197.926 82.145 197.77
 81.426 197.77 80.66 c 197.77 79.082 198.41 78.113 199.473 78.113 c 200.285
 78.113 200.707 78.52 200.973 79.582 c 202.988 79.582 l 202.801 77.645 201.426
 76.426 199.473 76.426 c 197.066 76.426 195.676 77.988 195.676 80.66 c 195.676
 83.41 197.082 85.004 199.488 85.004 c 201.52 85.004 202.848 83.816 202.988
 81.832 c h
204.496 87.707 m 206.609 87.707 l 206.609 83.707 l 207.188 84.582 207.938
 85.004 208.969 85.004 c 209.656 85.004 210.324 84.785 210.797 84.395 c 
211.344 83.926 211.609 83.207 211.609 82.207 c 211.609 76.77 l 209.516 76.77
 l 209.516 81.723 l 209.516 82.238 209.449 82.457 209.281 82.723 c 209.031
 83.051 208.672 83.223 208.219 83.223 c 207.281 83.223 206.609 82.566 206.609
 81.629 c 206.609 76.77 l 204.496 76.77 l h
220.523 77.02 m 220.523 76.77 l 218.242 76.77 l 218.055 77.004 218.008 
77.16 218.008 77.582 c 217.273 76.816 216.445 76.426 215.539 76.426 c 214.82
 76.426 214.117 76.707 213.648 77.191 c 213.273 77.598 213.086 78.16 213.086
 78.848 c 213.086 80.316 213.867 81.129 215.477 81.41 c 216.305 81.551 l
 217.352 81.723 217.352 81.723 217.633 81.863 c 217.852 81.988 217.992 82.223
 217.992 82.504 c 217.992 83.035 217.586 83.316 216.773 83.316 c 215.742
 83.316 215.398 83.035 215.289 82.207 c 213.258 82.207 l 213.398 84.082 
214.539 85.004 216.727 85.004 c 218.914 85.004 220.039 84.16 220.039 82.52
 c 220.039 78.02 l 220.039 77.598 220.148 77.363 220.523 77.02 c h
217.992 80.02 m 217.992 80.598 l 217.742 80.473 217.664 80.441 217.102 
80.332 c 216.383 80.207 l 215.508 80.02 215.18 79.723 215.18 79.098 c 215.18
 78.488 215.617 78.113 216.32 78.113 c 217.383 78.113 217.992 78.816 217.992
 80.02 c h
221.941 84.863 m 224.051 84.863 l 224.051 83.707 l 224.645 84.598 225.379
 85.004 226.473 85.004 c 228.207 85.004 229.191 83.988 229.191 82.207 c 
229.191 76.77 l 227.098 76.77 l 227.098 81.77 l 227.098 82.723 226.645 83.223
 225.738 83.223 c 224.723 83.223 224.051 82.582 224.051 81.629 c 224.051
 76.77 l 221.941 76.77 l h
231.105 84.863 m 233.215 84.863 l 233.215 83.707 l 233.809 84.598 234.543
 85.004 235.637 85.004 c 237.371 85.004 238.355 83.988 238.355 82.207 c 
238.355 76.77 l 236.262 76.77 l 236.262 81.77 l 236.262 82.723 235.809 83.223
 234.902 83.223 c 233.887 83.223 233.215 82.582 233.215 81.629 c 233.215
 76.77 l 231.105 76.77 l h
247.191 80.16 m 241.77 80.16 l 241.785 79.395 241.863 79.035 242.066 78.738
 c 242.363 78.285 242.848 78.035 243.441 78.035 c 244.207 78.035 244.785
 78.41 245.051 79.051 c 247.113 79.051 l 246.645 77.457 245.176 76.426 243.363
 76.426 c 241.066 76.426 239.66 78.02 239.66 80.613 c 239.66 83.332 241.082
 85.004 243.41 85.004 c 245.051 85.004 246.348 84.113 246.895 82.645 c 247.082
 82.082 247.207 81.332 247.207 80.52 c 247.207 80.41 247.207 80.332 247.191
 80.16 c h
241.785 81.551 m 245.02 81.551 l 244.973 82.113 244.879 82.426 244.691 
82.723 c 244.395 83.145 243.91 83.395 243.379 83.395 c 242.457 83.395 241.926
 82.785 241.785 81.551 c h
250.781 87.707 m 250.781 76.77 l 248.672 76.77 l 248.672 87.707 l f
0.454902 0.196078 0.592157 rg
q 1 0 0 1 0 421 cm
188.5 -323 70 -34 re S Q
0.882353 0.305882 1 rg
288.5 98 70 -34 re f
0 g
302.988 81.832 m 300.973 81.832 l 300.738 82.91 300.332 83.316 299.473 
83.316 c 298.879 83.316 298.41 83.066 298.176 82.613 c 297.926 82.145 297.77
 81.426 297.77 80.66 c 297.77 79.082 298.41 78.113 299.473 78.113 c 300.285
 78.113 300.707 78.52 300.973 79.582 c 302.988 79.582 l 302.801 77.645 301.426
 76.426 299.473 76.426 c 297.066 76.426 295.676 77.988 295.676 80.66 c 295.676
 83.41 297.082 85.004 299.488 85.004 c 301.52 85.004 302.848 83.816 302.988
 81.832 c h
304.496 87.707 m 306.609 87.707 l 306.609 83.707 l 307.188 84.582 307.938
 85.004 308.969 85.004 c 309.656 85.004 310.324 84.785 310.797 84.395 c 
311.344 83.926 311.609 83.207 311.609 82.207 c 311.609 76.77 l 309.516 76.77
 l 309.516 81.723 l 309.516 82.238 309.449 82.457 309.281 82.723 c 309.031
 83.051 308.672 83.223 308.219 83.223 c 307.281 83.223 306.609 82.566 306.609
 81.629 c 306.609 76.77 l 304.496 76.77 l h
320.523 77.02 m 320.523 76.77 l 318.242 76.77 l 318.055 77.004 318.008 
77.16 318.008 77.582 c 317.273 76.816 316.445 76.426 315.539 76.426 c 314.82
 76.426 314.117 76.707 313.648 77.191 c 313.273 77.598 313.086 78.16 313.086
 78.848 c 313.086 80.316 313.867 81.129 315.477 81.41 c 316.305 81.551 l
 317.352 81.723 317.352 81.723 317.633 81.863 c 317.852 81.988 317.992 82.223
 317.992 82.504 c 317.992 83.035 317.586 83.316 316.773 83.316 c 315.742
 83.316 315.398 83.035 315.289 82.207 c 313.258 82.207 l 313.398 84.082 
314.539 85.004 316.727 85.004 c 318.914 85.004 320.039 84.16 320.039 82.52
 c 320.039 78.02 l 320.039 77.598 320.148 77.363 320.523 77.02 c h
317.992 80.02 m 317.992 80.598 l 317.742 80.473 317.664 80.441 317.102 
80.332 c 316.383 80.207 l 315.508 80.02 315.18 79.723 315.18 79.098 c 315.18
 78.488 315.617 78.113 316.32 78.113 c 317.383 78.113 317.992 78.816 317.992
 80.02 c h
321.941 84.863 m 324.051 84.863 l 324.051 83.707 l 324.645 84.598 325.379
 85.004 326.473 85.004 c 328.207 85.004 329.191 83.988 329.191 82.207 c 
329.191 76.77 l 327.098 76.77 l 327.098 81.77 l 327.098 82.723 326.645 83.223
 325.738 83.223 c 324.723 83.223 324.051 82.582 324.051 81.629 c 324.051
 76.77 l 321.941 76.77 l h
331.105 84.863 m 333.215 84.863 l 333.215 83.707 l 333.809 84.598 334.543
 85.004 335.637 85.004 c 337.371 85.004 338.355 83.988 338.355 82.207 c 
338.355 76.77 l 336.262 76.77 l 336.262 81.77 l 336.262 82.723 335.809 83.223
 334.902 83.223 c 333.887 83.223 333.215 82.582 333.215 81.629 c 333.215
 76.77 l 331.105 76.77 l h
347.191 80.16 m 341.77 80.16 l 341.785 79.395 341.863 79.035 342.066 78.738
 c 342.363 78.285 342.848 78.035 343.441 78.035 c 344.207 78.035 344.785
 78.41 345.051 79.051 c 347.113 79.051 l 346.645 77.457 345.176 76.426 343.363
 76.426 c 341.066 76.426 339.66 78.02 339.66 80.613 c 339.66 83.332 341.082
 85.004 343.41 85.004 c 345.051 85.004 346.348 84.113 346.895 82.645 c 347.082
 82.082 347.207 81.332 347.207 80.52 c 347.207 80.41 347.207 80.332 347.191
 80.16 c h
341.785 81.551 m 345.02 81.551 l 344.973 82.113 344.879 82.426 344.691 
82.723 c 344.395 83.145 343.91 83.395 343.379 83.395 c 342.457 83.395 341.926
 82.785 341.785 81.551 c h
350.781 87.707 m 350.781 76.77 l 348.672 76.77 l 348.672 87.707 l f
0.454902 0.196078 0.592157 rg
q 1 0 0 1 0 421 cm
288.5 -323 70 -34 re S Q
0.882353 0.305882 1 rg
337.625 53 70 -34 re f
0 g
352.113 36.832 m 350.098 36.832 l 349.863 37.91 349.457 38.316 348.598 
38.316 c 348.004 38.316 347.535 38.066 347.301 37.613 c 347.051 37.145 346.895
 36.426 346.895 35.66 c 346.895 34.082 347.535 33.113 348.598 33.113 c 349.41
 33.113 349.832 33.52 350.098 34.582 c 352.113 34.582 l 351.926 32.645 350.551
 31.426 348.598 31.426 c 346.191 31.426 344.801 32.988 344.801 35.66 c 344.801
 38.41 346.207 40.004 348.613 40.004 c 350.645 40.004 351.973 38.816 352.113
 36.832 c h
353.621 42.707 m 355.734 42.707 l 355.734 38.707 l 356.312 39.582 357.062
 40.004 358.094 40.004 c 358.781 40.004 359.449 39.785 359.922 39.395 c 
360.469 38.926 360.734 38.207 360.734 37.207 c 360.734 31.77 l 358.641 31.77
 l 358.641 36.723 l 358.641 37.238 358.574 37.457 358.406 37.723 c 358.156
 38.051 357.797 38.223 357.344 38.223 c 356.406 38.223 355.734 37.566 355.734
 36.629 c 355.734 31.77 l 353.621 31.77 l h
369.648 32.02 m 369.648 31.77 l 367.367 31.77 l 367.18 32.004 367.133 32.16
 367.133 32.582 c 366.398 31.816 365.57 31.426 364.664 31.426 c 363.945 
31.426 363.242 31.707 362.773 32.191 c 362.398 32.598 362.211 33.16 362.211
 33.848 c 362.211 35.316 362.992 36.129 364.602 36.41 c 365.43 36.551 l 
366.477 36.723 366.477 36.723 366.758 36.863 c 366.977 36.988 367.117 37.223
 367.117 37.504 c 367.117 38.035 366.711 38.316 365.898 38.316 c 364.867
 38.316 364.523 38.035 364.414 37.207 c 362.383 37.207 l 362.523 39.082 
363.664 40.004 365.852 40.004 c 368.039 40.004 369.164 39.16 369.164 37.52
 c 369.164 33.02 l 369.164 32.598 369.273 32.363 369.648 32.02 c h
367.117 35.02 m 367.117 35.598 l 366.867 35.473 366.789 35.441 366.227 
35.332 c 365.508 35.207 l 364.633 35.02 364.305 34.723 364.305 34.098 c 
364.305 33.488 364.742 33.113 365.445 33.113 c 366.508 33.113 367.117 33.816
 367.117 35.02 c h
371.066 39.863 m 373.176 39.863 l 373.176 38.707 l 373.77 39.598 374.504
 40.004 375.598 40.004 c 377.332 40.004 378.316 38.988 378.316 37.207 c 
378.316 31.77 l 376.223 31.77 l 376.223 36.77 l 376.223 37.723 375.77 38.223
 374.863 38.223 c 373.848 38.223 373.176 37.582 373.176 36.629 c 373.176
 31.77 l 371.066 31.77 l h
380.23 39.863 m 382.34 39.863 l 382.34 38.707 l 382.934 39.598 383.668 
40.004 384.762 40.004 c 386.496 40.004 387.48 38.988 387.48 37.207 c 387.48
 31.77 l 385.387 31.77 l 385.387 36.77 l 385.387 37.723 384.934 38.223 384.027
 38.223 c 383.012 38.223 382.34 37.582 382.34 36.629 c 382.34 31.77 l 380.23
 31.77 l h
396.316 35.16 m 390.895 35.16 l 390.91 34.395 390.988 34.035 391.191 33.738
 c 391.488 33.285 391.973 33.035 392.566 33.035 c 393.332 33.035 393.91 
33.41 394.176 34.051 c 396.238 34.051 l 395.77 32.457 394.301 31.426 392.488
 31.426 c 390.191 31.426 388.785 33.02 388.785 35.613 c 388.785 38.332 390.207
 40.004 392.535 40.004 c 394.176 40.004 395.473 39.113 396.02 37.645 c 396.207
 37.082 396.332 36.332 396.332 35.52 c 396.332 35.41 396.332 35.332 396.316
 35.16 c h
390.91 36.551 m 394.145 36.551 l 394.098 37.113 394.004 37.426 393.816 
37.723 c 393.52 38.145 393.035 38.395 392.504 38.395 c 391.582 38.395 391.051
 37.785 390.91 36.551 c h
399.906 42.707 m 399.906 31.77 l 397.797 31.77 l 397.797 42.707 l f
0.454902 0.196078 0.592157 rg
q 1 0 0 1 0 421 cm
337.625 -368 70 -34 re S Q
0.882353 0.305882 1 rg
427 53 70 -34 re f
0 g
441.488 36.832 m 439.473 36.832 l 439.238 37.91 438.832 38.316 437.973 
38.316 c 437.379 38.316 436.91 38.066 436.676 37.613 c 436.426 37.145 436.27
 36.426 436.27 35.66 c 436.27 34.082 436.91 33.113 437.973 33.113 c 438.785
 33.113 439.207 33.52 439.473 34.582 c 441.488 34.582 l 441.301 32.645 439.926
 31.426 437.973 31.426 c 435.566 31.426 434.176 32.988 434.176 35.66 c 434.176
 38.41 435.582 40.004 437.988 40.004 c 440.02 40.004 441.348 38.816 441.488
 36.832 c h
442.996 42.707 m 445.109 42.707 l 445.109 38.707 l 445.688 39.582 446.438
 40.004 447.469 40.004 c 448.156 40.004 448.824 39.785 449.297 39.395 c 
449.844 38.926 450.109 38.207 450.109 37.207 c 450.109 31.77 l 448.016 31.77
 l 448.016 36.723 l 448.016 37.238 447.949 37.457 447.781 37.723 c 447.531
 38.051 447.172 38.223 446.719 38.223 c 445.781 38.223 445.109 37.566 445.109
 36.629 c 445.109 31.77 l 442.996 31.77 l h
459.023 32.02 m 459.023 31.77 l 456.742 31.77 l 456.555 32.004 456.508 
32.16 456.508 32.582 c 455.773 31.816 454.945 31.426 454.039 31.426 c 453.32
 31.426 452.617 31.707 452.148 32.191 c 451.773 32.598 451.586 33.16 451.586
 33.848 c 451.586 35.316 452.367 36.129 453.977 36.41 c 454.805 36.551 l
 455.852 36.723 455.852 36.723 456.133 36.863 c 456.352 36.988 456.492 37.223
 456.492 37.504 c 456.492 38.035 456.086 38.316 455.273 38.316 c 454.242
 38.316 453.898 38.035 453.789 37.207 c 451.758 37.207 l 451.898 39.082 
453.039 40.004 455.227 40.004 c 457.414 40.004 458.539 39.16 458.539 37.52
 c 458.539 33.02 l 458.539 32.598 458.648 32.363 459.023 32.02 c h
456.492 35.02 m 456.492 35.598 l 456.242 35.473 456.164 35.441 455.602 
35.332 c 454.883 35.207 l 454.008 35.02 453.68 34.723 453.68 34.098 c 453.68
 33.488 454.117 33.113 454.82 33.113 c 455.883 33.113 456.492 33.816 456.492
 35.02 c h
460.441 39.863 m 462.551 39.863 l 462.551 38.707 l 463.145 39.598 463.879
 40.004 464.973 40.004 c 466.707 40.004 467.691 38.988 467.691 37.207 c 
467.691 31.77 l 465.598 31.77 l 465.598 36.77 l 465.598 37.723 465.145 38.223
 464.238 38.223 c 463.223 38.223 462.551 37.582 462.551 36.629 c 462.551
 31.77 l 460.441 31.77 l h
469.605 39.863 m 471.715 39.863 l 471.715 38.707 l 472.309 39.598 473.043
 40.004 474.137 40.004 c 475.871 40.004 476.855 38.988 476.855 37.207 c 
476.855 31.77 l 474.762 31.77 l 474.762 36.77 l 474.762 37.723 474.309 38.223
 473.402 38.223 c 472.387 38.223 471.715 37.582 471.715 36.629 c 471.715
 31.77 l 469.605 31.77 l h
485.691 35.16 m 480.27 35.16 l 480.285 34.395 480.363 34.035 480.566 33.738
 c 480.863 33.285 481.348 33.035 481.941 33.035 c 482.707 33.035 483.285
 33.41 483.551 34.051 c 485.613 34.051 l 485.145 32.457 483.676 31.426 481.863
 31.426 c 479.566 31.426 478.16 33.02 478.16 35.613 c 478.16 38.332 479.582
 40.004 481.91 40.004 c 483.551 40.004 484.848 39.113 485.395 37.645 c 485.582
 37.082 485.707 36.332 485.707 35.52 c 485.707 35.41 485.707 35.332 485.691
 35.16 c h
480.285 36.551 m 483.52 36.551 l 483.473 37.113 483.379 37.426 483.191 
37.723 c 482.895 38.145 482.41 38.395 481.879 38.395 c 480.957 38.395 480.426
 37.785 480.285 36.551 c h
489.281 42.707 m 489.281 31.77 l 487.172 31.77 l 487.172 42.707 l f
0.454902 0.196078 0.592157 rg
q 1 0 0 1 0 421 cm
427 -368 70 -34 re S Q
0.882353 0.305882 1 rg
237.625 53 70 -34 re f
0 g
252.113 36.832 m 250.098 36.832 l 249.863 37.91 249.457 38.316 248.598 
38.316 c 248.004 38.316 247.535 38.066 247.301 37.613 c 247.051 37.145 246.895
 36.426 246.895 35.66 c 246.895 34.082 247.535 33.113 248.598 33.113 c 249.41
 33.113 249.832 33.52 250.098 34.582 c 252.113 34.582 l 251.926 32.645 250.551
 31.426 248.598 31.426 c 246.191 31.426 244.801 32.988 244.801 35.66 c 244.801
 38.41 246.207 40.004 248.613 40.004 c 250.645 40.004 251.973 38.816 252.113
 36.832 c h
253.621 42.707 m 255.734 42.707 l 255.734 38.707 l 256.312 39.582 257.062
 40.004 258.094 40.004 c 258.781 40.004 259.449 39.785 259.922 39.395 c 
260.469 38.926 260.734 38.207 260.734 37.207 c 260.734 31.77 l 258.641 31.77
 l 258.641 36.723 l 258.641 37.238 258.574 37.457 258.406 37.723 c 258.156
 38.051 257.797 38.223 257.344 38.223 c 256.406 38.223 255.734 37.566 255.734
 36.629 c 255.734 31.77 l 253.621 31.77 l h
269.648 32.02 m 269.648 31.77 l 267.367 31.77 l 267.18 32.004 267.133 32.16
 267.133 32.582 c 266.398 31.816 265.57 31.426 264.664 31.426 c 263.945 
31.426 263.242 31.707 262.773 32.191 c 262.398 32.598 262.211 33.16 262.211
 33.848 c 262.211 35.316 262.992 36.129 264.602 36.41 c 265.43 36.551 l 
266.477 36.723 266.477 36.723 266.758 36.863 c 266.977 36.988 267.117 37.223
 267.117 37.504 c 267.117 38.035 266.711 38.316 265.898 38.316 c 264.867
 38.316 264.523 38.035 264.414 37.207 c 262.383 37.207 l 262.523 39.082 
263.664 40.004 265.852 40.004 c 268.039 40.004 269.164 39.16 269.164 37.52
 c 269.164 33.02 l 269.164 32.598 269.273 32.363 269.648 32.02 c h
267.117 35.02 m 267.117 35.598 l 266.867 35.473 266.789 35.441 266.227 
35.332 c 265.508 35.207 l 264.633 35.02 264.305 34.723 264.305 34.098 c 
264.305 33.488 264.742 33.113 265.445 33.113 c 266.508 33.113 267.117 33.816
 267.117 35.02 c h
271.066 39.863 m 273.176 39.863 l 273.176 38.707 l 273.77 39.598 274.504
 40.004 275.598 40.004 c 277.332 40.004 278.316 38.988 278.316 37.207 c 
278.316 31.77 l 276.223 31.77 l 276.223 36.77 l 276.223 37.723 275.77 38.223
 274.863 38.223 c 273.848 38.223 273.176 37.582 273.176 36.629 c 273.176
 31.77 l 271.066 31.77 l h
280.23 39.863 m 282.34 39.863 l 282.34 38.707 l 282.934 39.598 283.668 
40.004 284.762 40.004 c 286.496 40.004 287.48 38.988 287.48 37.207 c 287.48
 31.77 l 285.387 31.77 l 285.387 36.77 l 285.387 37.723 284.934 38.223 284.027
 38.223 c 283.012 38.223 282.34 37.582 282.34 36.629 c 282.34 31.77 l 280.23
 31.77 l h
296.316 35.16 m 290.895 35.16 l 290.91 34.395 290.988 34.035 291.191 33.738
 c 291.488 33.285 291.973 33.035 292.566 33.035 c 293.332 33.035 293.91 
33.41 294.176 34.051 c 296.238 34.051 l 295.77 32.457 294.301 31.426 292.488
 31.426 c 290.191 31.426 288.785 33.02 288.785 35.613 c 288.785 38.332 290.207
 40.004 292.535 40.004 c 294.176 40.004 295.473 39.113 296.02 37.645 c 296.207
 37.082 296.332 36.332 296.332 35.52 c 296.332 35.41 296.332 35.332 296.316
 35.16 c h
290.91 36.551 m 294.145 36.551 l 294.098 37.113 294.004 37.426 293.816 
37.723 c 293.52 38.145 293.035 38.395 292.504 38.395 c 291.582 38.395 291.051
 37.785 290.91 36.551 c h
299.906 42.707 m 299.906 31.77 l 297.797 31.77 l 297.797 42.707 l f
0.454902 0.196078 0.592157 rg
q 1 0 0 1 0 421 cm
237.625 -368 70 -34 re S Q
0 g
2 w
q 1 0 0 1 0 421 cm
242.562 -125 m 162.27 -202.738 l S Q
155.805 212 m 169.414 217.348 l 163.078 219.043 l 161.59 225.434 l f
q 1 0 0 1 0 421 cm
272 -125 m 272 -200 l S Q
272 212 m 277.625 225.5 l 272 222.125 l 266.375 225.5 l f
q 1 0 0 1 0 421 cm
301.438 -125 m 381.73 -202.738 l S Q
388.195 212 m 382.41 225.434 l 380.922 219.043 l 374.586 217.348 l f
q 1 0 0 1 0 421 cm
130.5 -258 m 130.5 -314 l S Q
130.5 98 m 136.125 111.5 l 130.5 108.125 l 124.875 111.5 l f
q 1 0 0 1 0 421 cm
260.844 -258 m 234.973 -314.809 l S Q
231.242 98 m 241.957 107.953 l 235.438 107.215 l 231.719 112.617 l f
q 1 0 0 1 0 421 cm
283.848 -258 m 311.359 -314.898 l S Q
315.277 98 m 314.465 112.602 l 310.871 107.113 l 304.34 107.703 l f
q 1 0 0 1 0 421 cm
406.891 -258 m 379.555 -359.312 l S Q
377.211 53 m 386.16 64.57 l 379.848 62.773 l 375.297 67.5 l f
q 1 0 0 1 0 421 cm
421.344 -258 m 453.812 -359.43 l S Q
456.559 53 m 457.801 67.57 l 453.473 62.645 l 447.086 64.141 l f
q 1 0 0 1 0 421 cm
272.102 -258 m 272.52 -359 l S Q
272.555 53 m 278.125 66.523 l 272.512 63.125 l 266.875 66.477 l f
  Q
Q
Q Q
showpage
%%Trailer
end restore
%%EOF
