%!PS-Adobe-3.0 EPSF-3.0
%%Creator: cairo 1.12.2 (http://cairographics.org)
%%CreationDate: Mon Aug 19 22:17:15 2013
%%Pages: 1
%%DocumentData: Clean7Bit
%%LanguageLevel: 2
%%BoundingBox: 0 0 385 349
%%EndComments
%%BeginProlog
save
50 dict begin
/q { gsave } bind def
/Q { grestore } bind def
/cm { 6 array astore concat } bind def
/w { setlinewidth } bind def
/J { setlinecap } bind def
/j { setlinejoin } bind def
/M { setmiterlimit } bind def
/d { setdash } bind def
/m { moveto } bind def
/l { lineto } bind def
/c { curveto } bind def
/h { closepath } bind def
/re { exch dup neg 3 1 roll 5 3 roll moveto 0 rlineto
      0 exch rlineto 0 rlineto closepath } bind def
/S { stroke } bind def
/f { fill } bind def
/f* { eofill } bind def
/n { newpath } bind def
/W { clip } bind def
/W* { eoclip } bind def
/BT { } bind def
/ET { } bind def
/pdfmark where { pop globaldict /?pdfmark /exec load put }
    { globaldict begin /?pdfmark /pop load def /pdfmark
    /cleartomark load def end } ifelse
/BDC { mark 3 1 roll /BDC pdfmark } bind def
/EMC { mark /EMC pdfmark } bind def
/cairo_store_point { /cairo_point_y exch def /cairo_point_x exch def } def
/Tj { show currentpoint cairo_store_point } bind def
/TJ {
  {
    dup
    type /stringtype eq
    { show } { -0.001 mul 0 cairo_font_matrix dtransform rmoveto } ifelse
  } forall
  currentpoint cairo_store_point
} bind def
/cairo_selectfont { cairo_font_matrix aload pop pop pop 0 0 6 array astore
    cairo_font exch selectfont cairo_point_x cairo_point_y moveto } bind def
/Tf { pop /cairo_font exch def /cairo_font_matrix where
      { pop cairo_selectfont } if } bind def
/Td { matrix translate cairo_font_matrix matrix concatmatrix dup
      /cairo_font_matrix exch def dup 4 get exch 5 get cairo_store_point
      /cairo_font where { pop cairo_selectfont } if } bind def
/Tm { 2 copy 8 2 roll 6 array astore /cairo_font_matrix exch def
      cairo_store_point /cairo_font where { pop cairo_selectfont } if } bind def
/g { setgray } bind def
/rg { setrgbcolor } bind def
/d1 { setcachedevice } bind def
%%EndProlog
%%Page: 1 1
%%BeginPageSetup
%%PageBoundingBox: 0 0 385 349
%%EndPageSetup
q 0 0 385 349 rectclip q
1 g
0 0 385 349 rectfill
q
0 349 385 -349 re W n
  q
1 g
0 0 385 349 rectfill
1 0.796078 0.890196 rg
2.5 265.703 m 2.5 78.5 l 2.5 76.289 4.293 74.5 6.5 74.5 c 258.5 74.5 l 
260.711 74.5 262.5 76.289 262.5 78.5 c 262.5 265.703 l 262.5 267.914 260.711
 269.703 258.5 269.703 c 6.5 269.703 l 4.293 269.703 2.5 267.914 2.5 265.703
 c f
0.921569 g
2.5 269.703 260 -18.203 re f
0.454902 0.196078 0.592157 rg
215.715 256.371 m 215.715 257.199 l 215.184 256.402 214.48 256.027 213.48
 256.027 c 212.48 256.027 211.496 256.543 210.949 257.309 c 210.402 258.09
 210.074 259.199 210.074 260.309 c 210.074 262.746 211.543 264.605 213.48
 264.605 c 214.48 264.605 215.184 264.23 215.715 263.418 c 215.715 267.309
 l 217.809 267.309 l 217.809 256.371 l h
213.949 262.855 m 212.887 262.855 212.168 261.809 212.168 260.309 c 212.168
 258.809 212.887 257.777 213.949 257.777 c 214.996 257.777 215.715 258.809
 215.715 260.277 c 215.715 261.809 215.012 262.855 213.949 262.855 c h
226.66 259.762 m 221.238 259.762 l 221.254 258.996 221.332 258.637 221.535
 258.34 c 221.832 257.887 222.316 257.637 222.91 257.637 c 223.676 257.637
 224.254 258.012 224.52 258.652 c 226.582 258.652 l 226.113 257.059 224.645
 256.027 222.832 256.027 c 220.535 256.027 219.129 257.621 219.129 260.215
 c 219.129 262.934 220.551 264.605 222.879 264.605 c 224.52 264.605 225.816
 263.715 226.363 262.246 c 226.551 261.684 226.676 260.934 226.676 260.121
 c 226.676 260.012 226.676 259.934 226.66 259.762 c h
221.254 261.152 m 224.488 261.152 l 224.441 261.715 224.348 262.027 224.16
 262.324 c 223.863 262.746 223.379 262.996 222.848 262.996 c 221.926 262.996
 221.395 262.387 221.254 261.152 c h
232.391 256.371 m 230.188 256.371 l 227.344 264.465 l 229.578 264.465 l
 231.328 258.543 l 232.953 264.465 l 235.188 264.465 l h
238.59 264.465 m 238.59 256.371 l 236.48 256.371 l 236.48 264.465 l h
238.59 267.309 m 238.59 265.434 l 236.48 265.434 l 236.48 267.309 l h
247.48 261.434 m 245.465 261.434 l 245.23 262.512 244.824 262.918 243.965
 262.918 c 243.371 262.918 242.902 262.668 242.668 262.215 c 242.418 261.746
 242.262 261.027 242.262 260.262 c 242.262 258.684 242.902 257.715 243.965
 257.715 c 244.777 257.715 245.199 258.121 245.465 259.184 c 247.48 259.184
 l 247.293 257.246 245.918 256.027 243.965 256.027 c 241.559 256.027 240.168
 257.59 240.168 260.262 c 240.168 263.012 241.574 264.605 243.98 264.605
 c 246.012 264.605 247.34 263.418 247.48 261.434 c h
255.852 259.762 m 250.43 259.762 l 250.445 258.996 250.523 258.637 250.727
 258.34 c 251.023 257.887 251.508 257.637 252.102 257.637 c 252.867 257.637
 253.445 258.012 253.711 258.652 c 255.773 258.652 l 255.305 257.059 253.836
 256.027 252.023 256.027 c 249.727 256.027 248.32 257.621 248.32 260.215
 c 248.32 262.934 249.742 264.605 252.07 264.605 c 253.711 264.605 255.008
 263.715 255.555 262.246 c 255.742 261.684 255.867 260.934 255.867 260.121
 c 255.867 260.012 255.867 259.934 255.852 259.762 c h
250.445 261.152 m 253.68 261.152 l 253.633 261.715 253.535 262.027 253.352
 262.324 c 253.055 262.746 252.57 262.996 252.035 262.996 c 251.117 262.996
 250.586 262.387 250.445 261.152 c f
2 w
0 J
0 j
[ 12 4] 0 d
1.45 M q 1 0 0 1 0 349 cm
2.5 -83.297 m 2.5 -270.5 l 2.5 -272.711 4.293 -274.5 6.5 -274.5 c 258.5
 -274.5 l 260.711 -274.5 262.5 -272.711 262.5 -270.5 c 262.5 -83.297 l 262.5
 -81.086 260.711 -79.297 258.5 -79.297 c 6.5 -79.297 l 4.293 -79.297 2.5
 -81.086 2.5 -83.297 c h
S Q
0.882353 0.305882 1 rg
17.5 236.5 230 -57 re f
0 g
99.066 208.832 m 97.051 208.832 l 96.816 209.91 96.41 210.316 95.551 210.316
 c 94.957 210.316 94.488 210.066 94.254 209.613 c 94.004 209.145 93.848 
208.426 93.848 207.66 c 93.848 206.082 94.488 205.113 95.551 205.113 c 96.363
 205.113 96.785 205.52 97.051 206.582 c 99.066 206.582 l 98.879 204.645 
97.504 203.426 95.551 203.426 c 93.145 203.426 91.754 204.988 91.754 207.66
 c 91.754 210.41 93.16 212.004 95.566 212.004 c 97.598 212.004 98.926 210.816
 99.066 208.832 c h
100.574 214.707 m 102.688 214.707 l 102.688 210.707 l 103.266 211.582 104.016
 212.004 105.047 212.004 c 105.734 212.004 106.402 211.785 106.871 211.395
 c 107.422 210.926 107.688 210.207 107.688 209.207 c 107.688 203.77 l 105.594
 203.77 l 105.594 208.723 l 105.594 209.238 105.527 209.457 105.359 209.723
 c 105.109 210.051 104.746 210.223 104.297 210.223 c 103.359 210.223 102.688
 209.566 102.688 208.629 c 102.688 203.77 l 100.574 203.77 l h
116.602 204.02 m 116.602 203.77 l 114.32 203.77 l 114.133 204.004 114.086
 204.16 114.086 204.582 c 113.352 203.816 112.523 203.426 111.617 203.426
 c 110.898 203.426 110.195 203.707 109.727 204.191 c 109.352 204.598 109.164
 205.16 109.164 205.848 c 109.164 207.316 109.945 208.129 111.555 208.41
 c 112.383 208.551 l 113.43 208.723 113.43 208.723 113.711 208.863 c 113.93
 208.988 114.07 209.223 114.07 209.504 c 114.07 210.035 113.664 210.316 
112.852 210.316 c 111.82 210.316 111.477 210.035 111.367 209.207 c 109.336
 209.207 l 109.477 211.082 110.617 212.004 112.805 212.004 c 114.992 212.004
 116.117 211.16 116.117 209.52 c 116.117 205.02 l 116.117 204.598 116.227
 204.363 116.602 204.02 c h
114.07 207.02 m 114.07 207.598 l 113.82 207.473 113.742 207.441 113.18 
207.332 c 112.461 207.207 l 111.586 207.02 111.258 206.723 111.258 206.098
 c 111.258 205.488 111.695 205.113 112.398 205.113 c 113.461 205.113 114.07
 205.816 114.07 207.02 c h
118.02 211.863 m 120.129 211.863 l 120.129 210.707 l 120.723 211.598 121.457
 212.004 122.551 212.004 c 124.285 212.004 125.27 210.988 125.27 209.207
 c 125.27 203.77 l 123.176 203.77 l 123.176 208.77 l 123.176 209.723 122.723
 210.223 121.816 210.223 c 120.801 210.223 120.129 209.582 120.129 208.629
 c 120.129 203.77 l 118.02 203.77 l h
127.184 211.863 m 129.293 211.863 l 129.293 210.707 l 129.887 211.598 130.621
 212.004 131.715 212.004 c 133.449 212.004 134.434 210.988 134.434 209.207
 c 134.434 203.77 l 132.34 203.77 l 132.34 208.77 l 132.34 209.723 131.887
 210.223 130.98 210.223 c 129.965 210.223 129.293 209.582 129.293 208.629
 c 129.293 203.77 l 127.184 203.77 l h
143.27 207.16 m 137.848 207.16 l 137.863 206.395 137.941 206.035 138.145
 205.738 c 138.441 205.285 138.926 205.035 139.52 205.035 c 140.285 205.035
 140.863 205.41 141.129 206.051 c 143.191 206.051 l 142.723 204.457 141.254
 203.426 139.441 203.426 c 137.145 203.426 135.738 205.02 135.738 207.613
 c 135.738 210.332 137.16 212.004 139.488 212.004 c 141.129 212.004 142.426
 211.113 142.973 209.645 c 143.16 209.082 143.285 208.332 143.285 207.52
 c 143.285 207.41 143.285 207.332 143.27 207.16 c h
137.863 208.551 m 141.098 208.551 l 141.051 209.113 140.957 209.426 140.77
 209.723 c 140.473 210.145 139.988 210.395 139.457 210.395 c 138.535 210.395
 138.004 209.785 137.863 208.551 c h
146.859 214.707 m 146.859 203.77 l 144.75 203.77 l 144.75 214.707 l h
159.668 209.254 m 157.637 209.254 l 157.621 209.988 157.137 210.348 156.121
 210.348 c 155.387 210.348 154.902 210.051 154.902 209.598 c 154.902 209.27
 155.059 209.16 155.652 208.973 c 158.293 208.207 l 159.371 207.895 159.887
 207.223 159.887 206.176 c 159.887 205.379 159.527 204.629 158.934 204.145
 c 158.324 203.66 157.48 203.426 156.355 203.426 c 153.887 203.426 152.59
 204.348 152.527 206.129 c 154.574 206.129 l 154.668 205.691 154.762 205.52
 154.98 205.363 c 155.262 205.176 155.684 205.082 156.23 205.082 c 157.199
 205.082 157.793 205.379 157.793 205.863 c 157.793 206.207 157.605 206.363
 157.09 206.535 c 154.574 207.316 l 153.793 207.566 153.543 207.707 153.262
 207.988 c 152.98 208.301 152.809 208.77 152.809 209.301 c 152.809 210.973
 154.09 212.004 156.137 212.004 c 158.309 212.004 159.637 210.973 159.668
 209.254 c h
168.289 207.16 m 162.867 207.16 l 162.883 206.395 162.961 206.035 163.164
 205.738 c 163.461 205.285 163.945 205.035 164.539 205.035 c 165.305 205.035
 165.883 205.41 166.148 206.051 c 168.211 206.051 l 167.742 204.457 166.273
 203.426 164.461 203.426 c 162.164 203.426 160.758 205.02 160.758 207.613
 c 160.758 210.332 162.18 212.004 164.508 212.004 c 166.148 212.004 167.445
 211.113 167.992 209.645 c 168.18 209.082 168.305 208.332 168.305 207.52
 c 168.305 207.41 168.305 207.332 168.289 207.16 c h
162.883 208.551 m 166.117 208.551 l 166.07 209.113 165.977 209.426 165.789
 209.723 c 165.492 210.145 165.008 210.395 164.477 210.395 c 163.555 210.395
 163.023 209.785 162.883 208.551 c h
173.285 211.707 m 173.285 210.316 l 172.113 210.316 l 172.113 205.895 l
 172.113 205.176 172.254 205.02 172.801 205.02 c 172.957 205.02 173.082 
205.035 173.285 205.066 c 173.285 203.582 l 172.91 203.473 172.535 203.426
 172.066 203.426 c 170.691 203.426 170.02 204.051 170.02 205.332 c 170.02
 210.316 l 168.973 210.316 l 168.973 211.707 l 170.02 211.707 l 170.02 213.879
 l 172.113 213.879 l 172.113 211.707 l f
0.454902 0.196078 0.592157 rg
3 w
[] 0.0 d
q 1 0 0 1 0 349 cm
17.5 -112.5 230 -57 re S Q
0.882353 0.305882 1 rg
152.5 146.5 95 -57 re f
0 g
179.488 118.832 m 177.473 118.832 l 177.238 119.91 176.832 120.316 175.973
 120.316 c 175.379 120.316 174.91 120.066 174.676 119.613 c 174.426 119.145
 174.27 118.426 174.27 117.66 c 174.27 116.082 174.91 115.113 175.973 115.113
 c 176.785 115.113 177.207 115.52 177.473 116.582 c 179.488 116.582 l 179.301
 114.645 177.926 113.426 175.973 113.426 c 173.566 113.426 172.176 114.988
 172.176 117.66 c 172.176 120.41 173.582 122.004 175.988 122.004 c 178.02
 122.004 179.348 120.816 179.488 118.832 c h
180.996 124.707 m 183.109 124.707 l 183.109 120.707 l 183.688 121.582 184.438
 122.004 185.469 122.004 c 186.156 122.004 186.824 121.785 187.297 121.395
 c 187.844 120.926 188.109 120.207 188.109 119.207 c 188.109 113.77 l 186.016
 113.77 l 186.016 118.723 l 186.016 119.238 185.949 119.457 185.781 119.723
 c 185.531 120.051 185.172 120.223 184.719 120.223 c 183.781 120.223 183.109
 119.566 183.109 118.629 c 183.109 113.77 l 180.996 113.77 l h
197.023 114.02 m 197.023 113.77 l 194.742 113.77 l 194.555 114.004 194.508
 114.16 194.508 114.582 c 193.773 113.816 192.945 113.426 192.039 113.426
 c 191.32 113.426 190.617 113.707 190.148 114.191 c 189.773 114.598 189.586
 115.16 189.586 115.848 c 189.586 117.316 190.367 118.129 191.977 118.41
 c 192.805 118.551 l 193.852 118.723 193.852 118.723 194.133 118.863 c 194.352
 118.988 194.492 119.223 194.492 119.504 c 194.492 120.035 194.086 120.316
 193.273 120.316 c 192.242 120.316 191.898 120.035 191.789 119.207 c 189.758
 119.207 l 189.898 121.082 191.039 122.004 193.227 122.004 c 195.414 122.004
 196.539 121.16 196.539 119.52 c 196.539 115.02 l 196.539 114.598 196.648
 114.363 197.023 114.02 c h
194.492 117.02 m 194.492 117.598 l 194.242 117.473 194.164 117.441 193.602
 117.332 c 192.883 117.207 l 192.008 117.02 191.68 116.723 191.68 116.098
 c 191.68 115.488 192.117 115.113 192.82 115.113 c 193.883 115.113 194.492
 115.816 194.492 117.02 c h
198.441 121.863 m 200.551 121.863 l 200.551 120.707 l 201.145 121.598 201.879
 122.004 202.973 122.004 c 204.707 122.004 205.691 120.988 205.691 119.207
 c 205.691 113.77 l 203.598 113.77 l 203.598 118.77 l 203.598 119.723 203.145
 120.223 202.238 120.223 c 201.223 120.223 200.551 119.582 200.551 118.629
 c 200.551 113.77 l 198.441 113.77 l h
207.605 121.863 m 209.715 121.863 l 209.715 120.707 l 210.309 121.598 211.043
 122.004 212.137 122.004 c 213.871 122.004 214.855 120.988 214.855 119.207
 c 214.855 113.77 l 212.762 113.77 l 212.762 118.77 l 212.762 119.723 212.309
 120.223 211.402 120.223 c 210.387 120.223 209.715 119.582 209.715 118.629
 c 209.715 113.77 l 207.605 113.77 l h
223.691 117.16 m 218.27 117.16 l 218.285 116.395 218.363 116.035 218.566
 115.738 c 218.863 115.285 219.348 115.035 219.941 115.035 c 220.707 115.035
 221.285 115.41 221.551 116.051 c 223.613 116.051 l 223.145 114.457 221.676
 113.426 219.863 113.426 c 217.566 113.426 216.16 115.02 216.16 117.613 
c 216.16 120.332 217.582 122.004 219.91 122.004 c 221.551 122.004 222.848
 121.113 223.395 119.645 c 223.582 119.082 223.707 118.332 223.707 117.52
 c 223.707 117.41 223.707 117.332 223.691 117.16 c h
218.285 118.551 m 221.52 118.551 l 221.473 119.113 221.379 119.426 221.191
 119.723 c 220.895 120.145 220.41 120.395 219.879 120.395 c 218.957 120.395
 218.426 119.785 218.285 118.551 c h
227.281 124.707 m 227.281 113.77 l 225.172 113.77 l 225.172 124.707 l f
0.454902 0.196078 0.592157 rg
q 1 0 0 1 0 349 cm
152.5 -202.5 95 -57 re S Q
0.882353 0.305882 1 rg
17.5 146.5 95 -57 re f
0 g
44.488 118.832 m 42.473 118.832 l 42.238 119.91 41.832 120.316 40.973 120.316
 c 40.379 120.316 39.91 120.066 39.672 119.613 c 39.422 119.145 39.27 118.426
 39.27 117.66 c 39.27 116.082 39.91 115.113 40.973 115.113 c 41.785 115.113
 42.207 115.52 42.473 116.582 c 44.488 116.582 l 44.301 114.645 42.926 113.426
 40.973 113.426 c 38.566 113.426 37.172 114.988 37.172 117.66 c 37.172 120.41
 38.582 122.004 40.988 122.004 c 43.02 122.004 44.348 120.816 44.488 118.832
 c h
45.996 124.707 m 48.109 124.707 l 48.109 120.707 l 48.688 121.582 49.438
 122.004 50.469 122.004 c 51.156 122.004 51.828 121.785 52.293 121.395 c
 52.844 120.926 53.109 120.207 53.109 119.207 c 53.109 113.77 l 51.016 113.77
 l 51.016 118.723 l 51.016 119.238 50.953 119.457 50.781 119.723 c 50.531
 120.051 50.168 120.223 49.719 120.223 c 48.781 120.223 48.109 119.566 48.109
 118.629 c 48.109 113.77 l 45.996 113.77 l h
62.023 114.02 m 62.023 113.77 l 59.742 113.77 l 59.555 114.004 59.508 114.16
 59.508 114.582 c 58.773 113.816 57.945 113.426 57.039 113.426 c 56.32 113.426
 55.617 113.707 55.148 114.191 c 54.773 114.598 54.586 115.16 54.586 115.848
 c 54.586 117.316 55.367 118.129 56.977 118.41 c 57.805 118.551 l 58.852
 118.723 58.852 118.723 59.133 118.863 c 59.352 118.988 59.492 119.223 59.492
 119.504 c 59.492 120.035 59.086 120.316 58.273 120.316 c 57.242 120.316
 56.898 120.035 56.789 119.207 c 54.758 119.207 l 54.898 121.082 56.039 
122.004 58.227 122.004 c 60.414 122.004 61.539 121.16 61.539 119.52 c 61.539
 115.02 l 61.539 114.598 61.648 114.363 62.023 114.02 c h
59.492 117.02 m 59.492 117.598 l 59.242 117.473 59.164 117.441 58.602 117.332
 c 57.883 117.207 l 57.008 117.02 56.68 116.723 56.68 116.098 c 56.68 115.488
 57.117 115.113 57.82 115.113 c 58.883 115.113 59.492 115.816 59.492 117.02
 c h
63.441 121.863 m 65.551 121.863 l 65.551 120.707 l 66.145 121.598 66.879
 122.004 67.973 122.004 c 69.707 122.004 70.691 120.988 70.691 119.207 c
 70.691 113.77 l 68.598 113.77 l 68.598 118.77 l 68.598 119.723 68.145 120.223
 67.238 120.223 c 66.223 120.223 65.551 119.582 65.551 118.629 c 65.551 
113.77 l 63.441 113.77 l h
72.605 121.863 m 74.715 121.863 l 74.715 120.707 l 75.309 121.598 76.043
 122.004 77.137 122.004 c 78.871 122.004 79.855 120.988 79.855 119.207 c
 79.855 113.77 l 77.762 113.77 l 77.762 118.77 l 77.762 119.723 77.309 120.223
 76.402 120.223 c 75.387 120.223 74.715 119.582 74.715 118.629 c 74.715 
113.77 l 72.605 113.77 l h
88.691 117.16 m 83.27 117.16 l 83.285 116.395 83.363 116.035 83.566 115.738
 c 83.863 115.285 84.348 115.035 84.941 115.035 c 85.707 115.035 86.285 
115.41 86.551 116.051 c 88.613 116.051 l 88.145 114.457 86.676 113.426 84.863
 113.426 c 82.566 113.426 81.16 115.02 81.16 117.613 c 81.16 120.332 82.582
 122.004 84.91 122.004 c 86.551 122.004 87.848 121.113 88.395 119.645 c 
88.582 119.082 88.707 118.332 88.707 117.52 c 88.707 117.41 88.707 117.332
 88.691 117.16 c h
83.285 118.551 m 86.52 118.551 l 86.473 119.113 86.379 119.426 86.191 119.723
 c 85.895 120.145 85.41 120.395 84.879 120.395 c 83.957 120.395 83.426 119.785
 83.285 118.551 c h
92.281 124.707 m 92.281 113.77 l 90.172 113.77 l 90.172 124.707 l f
0.454902 0.196078 0.592157 rg
q 1 0 0 1 0 349 cm
17.5 -202.5 95 -57 re S Q
0.886275 0.286275 0.317647 rg
287.5 346.5 95 -57 re f
0 g
315.766 328.809 m 315.766 327.418 l 314.594 327.418 l 314.594 322.996 l
 314.594 322.277 314.734 322.121 315.281 322.121 c 315.438 322.121 315.562
 322.137 315.766 322.168 c 315.766 320.684 l 315.391 320.574 315.016 320.527
 314.547 320.527 c 313.172 320.527 312.496 321.152 312.496 322.434 c 312.496
 327.418 l 311.453 327.418 l 311.453 328.809 l 312.496 328.809 l 312.496
 330.98 l 314.594 330.98 l 314.594 328.809 l h
317.18 328.965 m 319.289 328.965 l 319.289 327.387 l 319.742 328.48 320.57
 329.105 321.539 329.105 c 321.602 329.105 321.68 329.105 321.789 329.09
 c 321.789 326.965 l 321.508 327.012 321.352 327.027 321.133 327.027 c 319.898
 327.027 319.289 326.402 319.289 325.184 c 319.289 320.871 l 317.18 320.871
 l h
325.188 328.965 m 325.188 320.871 l 323.078 320.871 l 323.078 328.965 l
 h
325.188 331.809 m 325.188 329.934 l 323.078 329.934 l 323.078 331.809 l
 h
332.371 328.965 m 334.355 328.965 l 334.355 320.605 l 334.355 318.699 332.949
 317.605 330.512 317.605 c 329.262 317.605 328.355 317.855 327.719 318.387
 c 327.184 318.824 326.934 319.262 326.922 319.902 c 329.094 319.902 l 329.262
 319.277 329.797 318.949 330.574 318.949 c 331.637 318.949 332.371 319.621
 332.371 320.605 c 332.371 321.699 l 331.594 320.809 331.012 320.527 330.074
 320.527 c 328.074 320.527 326.762 322.199 326.762 324.73 c 326.762 327.23
 328.199 329.105 330.121 329.105 c 331.047 329.105 331.73 328.684 332.371
 327.73 c h
330.559 327.355 m 329.547 327.355 328.855 326.293 328.855 324.762 c 328.855
 323.293 329.547 322.277 330.547 322.277 c 331.637 322.277 332.402 323.293
 332.402 324.762 c 332.402 326.262 331.621 327.355 330.559 327.355 c h
341.535 328.965 m 343.523 328.965 l 343.523 320.605 l 343.523 318.699 342.117
 317.605 339.68 317.605 c 338.43 317.605 337.523 317.855 336.883 318.387
 c 336.352 318.824 336.102 319.262 336.086 319.902 c 338.258 319.902 l 338.43
 319.277 338.961 318.949 339.742 318.949 c 340.805 318.949 341.535 319.621
 341.535 320.605 c 341.535 321.699 l 340.758 320.809 340.18 320.527 339.242
 320.527 c 337.242 320.527 335.93 322.199 335.93 324.73 c 335.93 327.23 
337.367 329.105 339.285 329.105 c 340.211 329.105 340.898 328.684 341.535
 327.73 c h
339.727 327.355 m 338.711 327.355 338.023 326.293 338.023 324.762 c 338.023
 323.293 338.711 322.277 339.711 322.277 c 340.805 322.277 341.57 323.293
 341.57 324.762 c 341.57 326.262 340.785 327.355 339.727 327.355 c h
352.438 324.262 m 347.016 324.262 l 347.031 323.496 347.109 323.137 347.312
 322.84 c 347.609 322.387 348.094 322.137 348.688 322.137 c 349.453 322.137
 350.031 322.512 350.297 323.152 c 352.359 323.152 l 351.891 321.559 350.422
 320.527 348.609 320.527 c 346.312 320.527 344.906 322.121 344.906 324.715
 c 344.906 327.434 346.328 329.105 348.656 329.105 c 350.297 329.105 351.594
 328.215 352.141 326.746 c 352.328 326.184 352.453 325.434 352.453 324.621
 c 352.453 324.512 352.453 324.434 352.438 324.262 c h
347.031 325.652 m 350.266 325.652 l 350.219 326.215 350.125 326.527 349.938
 326.824 c 349.641 327.246 349.156 327.496 348.625 327.496 c 347.703 327.496
 347.172 326.887 347.031 325.652 c h
353.855 328.965 m 355.965 328.965 l 355.965 327.387 l 356.418 328.48 357.246
 329.105 358.215 329.105 c 358.277 329.105 358.355 329.105 358.465 329.09
 c 358.465 326.965 l 358.184 327.012 358.027 327.027 357.809 327.027 c 356.574
 327.027 355.965 326.402 355.965 325.184 c 355.965 320.871 l 353.855 320.871
 l f
324.098 314.605 m 324.098 313.215 l 322.926 313.215 l 322.926 308.793 l
 322.926 308.074 323.066 307.918 323.613 307.918 c 323.77 307.918 323.895
 307.934 324.098 307.965 c 324.098 306.48 l 323.723 306.371 323.348 306.324
 322.879 306.324 c 321.504 306.324 320.832 306.949 320.832 308.23 c 320.832
 313.215 l 319.785 313.215 l 319.785 314.605 l 320.832 314.605 l 320.832
 316.777 l 322.926 316.777 l 322.926 314.605 l h
330.48 314.762 m 332.637 314.762 l 329.309 305.184 l 328.965 304.23 328.715
 303.871 328.137 303.637 c 327.762 303.48 327.137 303.387 326.621 303.387
 c 326.355 303.387 326.184 303.402 325.871 303.449 c 325.871 305.012 l 326.137
 304.949 326.262 304.934 326.418 304.934 c 327.152 304.934 327.73 305.512
 327.73 306.277 c 327.73 306.34 l 324.715 314.762 l 327.012 314.762 l 328.809
 308.871 l h
335.883 314.762 m 335.883 313.574 l 336.398 314.465 337.117 314.902 338.133
 314.902 c 339.102 314.902 340.117 314.387 340.648 313.621 c 341.195 312.871
 341.523 311.73 341.523 310.605 c 341.523 308.137 340.086 306.309 338.133
 306.309 c 337.117 306.309 336.398 306.73 335.883 307.621 c 335.883 303.402
 l 333.789 303.402 l 333.789 314.762 l h
337.648 313.152 m 336.602 313.152 335.883 312.105 335.883 310.605 c 335.883
 309.09 336.602 308.059 337.648 308.059 c 338.695 308.059 339.43 309.105
 339.43 310.574 c 339.43 312.105 338.727 313.152 337.648 313.152 c h
349.938 310.059 m 344.516 310.059 l 344.531 309.293 344.609 308.934 344.812
 308.637 c 345.109 308.184 345.594 307.934 346.188 307.934 c 346.953 307.934
 347.531 308.309 347.797 308.949 c 349.859 308.949 l 349.391 307.355 347.922
 306.324 346.109 306.324 c 343.812 306.324 342.406 307.918 342.406 310.512
 c 342.406 313.23 343.828 314.902 346.156 314.902 c 347.797 314.902 349.094
 314.012 349.641 312.543 c 349.828 311.98 349.953 311.23 349.953 310.418
 c 349.953 310.309 349.953 310.23 349.938 310.059 c h
344.531 311.449 m 347.766 311.449 l 347.719 312.012 347.629 312.324 347.438
 312.621 c 347.141 313.043 346.656 313.293 346.129 313.293 c 345.203 313.293
 344.672 312.684 344.531 311.449 c f
0.454902 0.156863 0.156863 rg
q 1 0 0 1 0 349 cm
287.5 -2.5 95 -57 re S Q
0.65098 0.486275 0.32549 rg
287.5 59.5 95 -57 re f
0 g
314.645 44.809 m 316.738 44.809 l 316.738 40.918 l 317.254 41.73 317.973
 42.105 318.973 42.105 c 319.957 42.105 320.957 41.59 321.504 40.809 c 322.051
 40.027 322.379 38.918 322.379 37.809 c 322.379 35.371 320.91 33.527 318.973
 33.527 c 317.957 33.527 317.254 33.902 316.738 34.703 c 316.738 33.871 
l 314.645 33.871 l h
318.504 40.355 m 317.457 40.355 316.738 39.309 316.738 37.84 c 316.738 
36.309 317.441 35.277 318.504 35.277 c 319.551 35.277 320.285 36.328 320.285
 37.809 c 320.285 39.309 319.551 40.355 318.504 40.355 c h
331.027 33.871 m 328.934 33.871 l 328.934 34.828 l 328.34 33.934 327.605
 33.527 326.496 33.527 c 324.777 33.527 323.793 34.543 323.793 36.328 c 
323.793 41.965 l 325.887 41.965 l 325.887 36.762 l 325.887 35.793 326.34
 35.309 327.23 35.309 c 328.262 35.309 328.934 35.934 328.934 36.902 c 328.934
 41.965 l 331.027 41.965 l h
336.77 41.809 m 336.77 40.418 l 335.535 40.418 l 335.535 33.871 l 333.426
 33.871 l 333.426 40.418 l 332.285 40.418 l 332.285 41.809 l 333.426 41.809
 l 333.426 42.777 l 333.426 44.152 334.113 44.809 335.504 44.809 c 335.785
 44.809 336.316 44.793 336.707 44.762 c 336.707 43.184 l 336.52 43.215 336.285
 43.23 336.098 43.23 c 335.707 43.23 335.535 43.027 335.535 42.605 c 335.535
 41.809 l h
341.766 41.809 m 341.766 40.418 l 340.531 40.418 l 340.531 33.871 l 338.422
 33.871 l 338.422 40.418 l 337.281 40.418 l 337.281 41.809 l 338.422 41.809
 l 338.422 42.777 l 338.422 44.152 339.109 44.809 340.5 44.809 c 340.781
 44.809 341.312 44.793 341.703 44.762 c 341.703 43.184 l 341.516 43.215 
341.281 43.23 341.094 43.23 c 340.703 43.23 340.531 43.027 340.531 42.605
 c 340.531 41.809 l h
349.934 37.262 m 344.512 37.262 l 344.523 36.496 344.602 36.137 344.809
 35.84 c 345.102 35.387 345.59 35.137 346.184 35.137 c 346.945 35.137 347.523
 35.512 347.789 36.152 c 349.852 36.152 l 349.387 34.559 347.914 33.527 
346.102 33.527 c 343.809 33.527 342.398 35.121 342.398 37.715 c 342.398 
40.434 343.82 42.105 346.148 42.105 c 347.789 42.105 349.09 41.215 349.637
 39.746 c 349.82 39.184 349.945 38.434 349.945 37.621 c 349.945 37.512 349.945
 37.434 349.934 37.262 c h
344.523 38.652 m 347.762 38.652 l 347.715 39.215 347.617 39.527 347.434
 39.828 c 347.137 40.246 346.648 40.496 346.117 40.496 c 345.195 40.496 
344.664 39.887 344.523 38.652 c h
351.348 41.965 m 353.461 41.965 l 353.461 40.387 l 353.91 41.48 354.738
 42.105 355.711 42.105 c 355.77 42.105 355.848 42.105 355.961 42.09 c 355.961
 39.965 l 355.676 40.012 355.52 40.027 355.301 40.027 c 354.066 40.027 353.461
 39.402 353.461 38.184 c 353.461 33.871 l 351.348 33.871 l f
324.098 27.605 m 324.098 26.215 l 322.926 26.215 l 322.926 21.793 l 322.926
 21.074 323.066 20.918 323.613 20.918 c 323.77 20.918 323.895 20.934 324.098
 20.965 c 324.098 19.48 l 323.723 19.371 323.348 19.324 322.879 19.324 c
 321.504 19.324 320.832 19.949 320.832 21.23 c 320.832 26.215 l 319.785 
26.215 l 319.785 27.605 l 320.832 27.605 l 320.832 29.777 l 322.926 29.777
 l 322.926 27.605 l h
330.48 27.762 m 332.637 27.762 l 329.309 18.184 l 328.965 17.23 328.715
 16.871 328.137 16.637 c 327.762 16.48 327.137 16.387 326.621 16.387 c 326.355
 16.387 326.184 16.402 325.871 16.449 c 325.871 18.012 l 326.137 17.949 
326.262 17.934 326.418 17.934 c 327.152 17.934 327.73 18.512 327.73 19.277
 c 327.73 19.34 l 324.715 27.762 l 327.012 27.762 l 328.809 21.871 l h
335.883 27.762 m 335.883 26.574 l 336.398 27.465 337.117 27.902 338.133
 27.902 c 339.102 27.902 340.117 27.387 340.648 26.621 c 341.195 25.871 
341.523 24.73 341.523 23.605 c 341.523 21.137 340.086 19.309 338.133 19.309
 c 337.117 19.309 336.398 19.73 335.883 20.621 c 335.883 16.402 l 333.789
 16.402 l 333.789 27.762 l h
337.648 26.152 m 336.602 26.152 335.883 25.105 335.883 23.605 c 335.883
 22.09 336.602 21.059 337.648 21.059 c 338.695 21.059 339.43 22.105 339.43
 23.574 c 339.43 25.105 338.727 26.152 337.648 26.152 c h
349.938 23.059 m 344.516 23.059 l 344.531 22.293 344.609 21.934 344.812
 21.637 c 345.109 21.184 345.594 20.934 346.188 20.934 c 346.953 20.934 
347.531 21.309 347.797 21.949 c 349.859 21.949 l 349.391 20.355 347.922 
19.324 346.109 19.324 c 343.812 19.324 342.406 20.918 342.406 23.512 c 342.406
 26.23 343.828 27.902 346.156 27.902 c 347.797 27.902 349.094 27.012 349.641
 25.543 c 349.828 24.98 349.953 24.23 349.953 23.418 c 349.953 23.309 349.953
 23.23 349.938 23.059 c h
344.531 24.449 m 347.766 24.449 l 347.719 25.012 347.629 25.324 347.438
 25.621 c 347.141 26.043 346.656 26.293 346.129 26.293 c 345.203 26.293 
344.672 25.684 344.531 24.449 c f
0.380392 0.282353 0.188235 rg
q 1 0 0 1 0 349 cm
287.5 -289.5 95 -57 re S Q
0.65098 0.486275 0.32549 rg
152.5 59.5 95 -57 re f
0 g
179.645 44.809 m 181.738 44.809 l 181.738 40.918 l 182.254 41.73 182.973
 42.105 183.973 42.105 c 184.957 42.105 185.957 41.59 186.504 40.809 c 187.051
 40.027 187.379 38.918 187.379 37.809 c 187.379 35.371 185.91 33.527 183.973
 33.527 c 182.957 33.527 182.254 33.902 181.738 34.703 c 181.738 33.871 
l 179.645 33.871 l h
183.504 40.355 m 182.457 40.355 181.738 39.309 181.738 37.84 c 181.738 
36.309 182.441 35.277 183.504 35.277 c 184.551 35.277 185.285 36.328 185.285
 37.809 c 185.285 39.309 184.551 40.355 183.504 40.355 c h
196.027 33.871 m 193.934 33.871 l 193.934 34.828 l 193.34 33.934 192.605
 33.527 191.496 33.527 c 189.777 33.527 188.793 34.543 188.793 36.328 c 
188.793 41.965 l 190.887 41.965 l 190.887 36.762 l 190.887 35.793 191.34
 35.309 192.23 35.309 c 193.262 35.309 193.934 35.934 193.934 36.902 c 193.934
 41.965 l 196.027 41.965 l h
201.77 41.809 m 201.77 40.418 l 200.535 40.418 l 200.535 33.871 l 198.426
 33.871 l 198.426 40.418 l 197.285 40.418 l 197.285 41.809 l 198.426 41.809
 l 198.426 42.777 l 198.426 44.152 199.113 44.809 200.504 44.809 c 200.785
 44.809 201.316 44.793 201.707 44.762 c 201.707 43.184 l 201.52 43.215 201.285
 43.23 201.098 43.23 c 200.707 43.23 200.535 43.027 200.535 42.605 c 200.535
 41.809 l h
206.766 41.809 m 206.766 40.418 l 205.531 40.418 l 205.531 33.871 l 203.422
 33.871 l 203.422 40.418 l 202.281 40.418 l 202.281 41.809 l 203.422 41.809
 l 203.422 42.777 l 203.422 44.152 204.109 44.809 205.5 44.809 c 205.781
 44.809 206.312 44.793 206.703 44.762 c 206.703 43.184 l 206.516 43.215 
206.281 43.23 206.094 43.23 c 205.703 43.23 205.531 43.027 205.531 42.605
 c 205.531 41.809 l h
214.934 37.262 m 209.512 37.262 l 209.523 36.496 209.602 36.137 209.809
 35.84 c 210.102 35.387 210.59 35.137 211.184 35.137 c 211.945 35.137 212.523
 35.512 212.789 36.152 c 214.852 36.152 l 214.387 34.559 212.914 33.527 
211.102 33.527 c 208.809 33.527 207.398 35.121 207.398 37.715 c 207.398 
40.434 208.82 42.105 211.148 42.105 c 212.789 42.105 214.09 41.215 214.637
 39.746 c 214.82 39.184 214.945 38.434 214.945 37.621 c 214.945 37.512 214.945
 37.434 214.934 37.262 c h
209.523 38.652 m 212.762 38.652 l 212.715 39.215 212.617 39.527 212.434
 39.828 c 212.137 40.246 211.648 40.496 211.117 40.496 c 210.195 40.496 
209.664 39.887 209.523 38.652 c h
216.348 41.965 m 218.461 41.965 l 218.461 40.387 l 218.91 41.48 219.738
 42.105 220.711 42.105 c 220.77 42.105 220.848 42.105 220.961 42.09 c 220.961
 39.965 l 220.676 40.012 220.52 40.027 220.301 40.027 c 219.066 40.027 218.461
 39.402 218.461 38.184 c 218.461 33.871 l 216.348 33.871 l f
172.684 27.762 m 172.684 19.668 l 170.574 19.668 l 170.574 27.762 l h
172.684 30.605 m 172.684 28.73 l 170.574 28.73 l 170.574 30.605 l h
174.68 27.762 m 176.789 27.762 l 176.789 26.605 l 177.383 27.496 178.117
 27.902 179.211 27.902 c 180.945 27.902 181.93 26.887 181.93 25.105 c 181.93
 19.668 l 179.836 19.668 l 179.836 24.668 l 179.836 25.621 179.383 26.121
 178.477 26.121 c 177.461 26.121 176.789 25.48 176.789 24.527 c 176.789 
19.668 l 174.68 19.668 l h
190.484 25.152 m 188.453 25.152 l 188.438 25.887 187.953 26.246 186.938
 26.246 c 186.203 26.246 185.723 25.949 185.723 25.496 c 185.723 25.168 
185.879 25.059 186.473 24.871 c 189.109 24.105 l 190.188 23.793 190.703 
23.121 190.703 22.074 c 190.703 21.277 190.348 20.527 189.754 20.043 c 189.145
 19.559 188.301 19.324 187.176 19.324 c 184.703 19.324 183.406 20.246 183.348
 22.027 c 185.395 22.027 l 185.484 21.59 185.578 21.418 185.801 21.262 c
 186.078 21.074 186.504 20.98 187.051 20.98 c 188.02 20.98 188.609 21.277
 188.609 21.762 c 188.609 22.105 188.426 22.262 187.906 22.434 c 185.395
 23.215 l 184.609 23.465 184.359 23.605 184.078 23.887 c 183.801 24.199 
183.629 24.668 183.629 25.199 c 183.629 26.871 184.906 27.902 186.953 27.902
 c 189.129 27.902 190.453 26.871 190.484 25.152 c h
195.762 27.605 m 195.762 26.215 l 194.594 26.215 l 194.594 21.793 l 194.594
 21.074 194.73 20.918 195.277 20.918 c 195.434 20.918 195.559 20.934 195.762
 20.965 c 195.762 19.48 l 195.387 19.371 195.012 19.324 194.547 19.324 c
 193.172 19.324 192.496 19.949 192.496 21.23 c 192.496 26.215 l 191.449 
26.215 l 191.449 27.605 l 192.496 27.605 l 192.496 29.777 l 194.594 29.777
 l 194.594 27.605 l h
204.102 19.918 m 204.102 19.668 l 201.82 19.668 l 201.633 19.902 201.586
 20.059 201.586 20.48 c 200.852 19.715 200.023 19.324 199.117 19.324 c 198.398
 19.324 197.695 19.605 197.227 20.09 c 196.852 20.496 196.664 21.059 196.664
 21.746 c 196.664 23.215 197.445 24.027 199.055 24.309 c 199.883 24.449 
l 200.93 24.621 200.93 24.621 201.211 24.762 c 201.43 24.887 201.57 25.121
 201.57 25.402 c 201.57 25.934 201.164 26.215 200.352 26.215 c 199.32 26.215
 198.977 25.934 198.867 25.105 c 196.836 25.105 l 196.977 26.98 198.117 
27.902 200.305 27.902 c 202.492 27.902 203.617 27.059 203.617 25.418 c 203.617
 20.918 l 203.617 20.496 203.727 20.262 204.102 19.918 c h
201.57 22.918 m 201.57 23.496 l 201.32 23.371 201.242 23.34 200.68 23.23
 c 199.961 23.105 l 199.086 22.918 198.758 22.621 198.758 21.996 c 198.758
 21.387 199.195 21.012 199.898 21.012 c 200.961 21.012 201.57 21.715 201.57
 22.918 c h
205.52 27.762 m 207.629 27.762 l 207.629 26.605 l 208.223 27.496 208.957
 27.902 210.051 27.902 c 211.785 27.902 212.77 26.887 212.77 25.105 c 212.77
 19.668 l 210.676 19.668 l 210.676 24.668 l 210.676 25.621 210.223 26.121
 209.316 26.121 c 208.301 26.121 207.629 25.48 207.629 24.527 c 207.629 
19.668 l 205.52 19.668 l h
221.574 24.73 m 219.559 24.73 l 219.324 25.809 218.918 26.215 218.059 26.215
 c 217.465 26.215 216.996 25.965 216.762 25.512 c 216.512 25.043 216.355
 24.324 216.355 23.559 c 216.355 21.98 216.996 21.012 218.059 21.012 c 218.871
 21.012 219.293 21.418 219.559 22.48 c 221.574 22.48 l 221.387 20.543 220.012
 19.324 218.059 19.324 c 215.652 19.324 214.262 20.887 214.262 23.559 c 
214.262 26.309 215.668 27.902 218.074 27.902 c 220.105 27.902 221.434 26.715
 221.574 24.73 c h
229.945 23.059 m 224.523 23.059 l 224.539 22.293 224.617 21.934 224.82 
21.637 c 225.117 21.184 225.602 20.934 226.195 20.934 c 226.961 20.934 227.539
 21.309 227.805 21.949 c 229.867 21.949 l 229.398 20.355 227.93 19.324 226.117
 19.324 c 223.82 19.324 222.414 20.918 222.414 23.512 c 222.414 26.23 223.836
 27.902 226.164 27.902 c 227.805 27.902 229.102 27.012 229.648 25.543 c 
229.836 24.98 229.961 24.23 229.961 23.418 c 229.961 23.309 229.961 23.23
 229.945 23.059 c h
224.539 24.449 m 227.773 24.449 l 227.727 25.012 227.633 25.324 227.445
 25.621 c 227.148 26.043 226.664 26.293 226.133 26.293 c 225.211 26.293 
224.68 25.684 224.539 24.449 c f
0.380392 0.282353 0.188235 rg
q 1 0 0 1 0 349 cm
152.5 -289.5 95 -57 re S Q
0.886275 0.286275 0.317647 rg
17.5 346.5 230 -57 re f
0 g
113.266 328.809 m 113.266 327.418 l 112.094 327.418 l 112.094 322.996 l
 112.094 322.277 112.234 322.121 112.781 322.121 c 112.938 322.121 113.062
 322.137 113.266 322.168 c 113.266 320.684 l 112.891 320.574 112.516 320.527
 112.047 320.527 c 110.672 320.527 109.996 321.152 109.996 322.434 c 109.996
 327.418 l 108.953 327.418 l 108.953 328.809 l 109.996 328.809 l 109.996
 330.98 l 112.094 330.98 l 112.094 328.809 l h
114.68 328.965 m 116.789 328.965 l 116.789 327.387 l 117.242 328.48 118.07
 329.105 119.039 329.105 c 119.102 329.105 119.18 329.105 119.289 329.09
 c 119.289 326.965 l 119.008 327.012 118.852 327.027 118.633 327.027 c 117.398
 327.027 116.789 326.402 116.789 325.184 c 116.789 320.871 l 114.68 320.871
 l h
122.688 328.965 m 122.688 320.871 l 120.578 320.871 l 120.578 328.965 l
 h
122.688 331.809 m 122.688 329.934 l 120.578 329.934 l 120.578 331.809 l
 h
129.871 328.965 m 131.855 328.965 l 131.855 320.605 l 131.855 318.699 130.449
 317.605 128.012 317.605 c 126.762 317.605 125.855 317.855 125.219 318.387
 c 124.684 318.824 124.434 319.262 124.422 319.902 c 126.594 319.902 l 126.762
 319.277 127.297 318.949 128.074 318.949 c 129.137 318.949 129.871 319.621
 129.871 320.605 c 129.871 321.699 l 129.094 320.809 128.512 320.527 127.574
 320.527 c 125.574 320.527 124.262 322.199 124.262 324.73 c 124.262 327.23
 125.699 329.105 127.621 329.105 c 128.547 329.105 129.23 328.684 129.871
 327.73 c h
128.059 327.355 m 127.047 327.355 126.355 326.293 126.355 324.762 c 126.355
 323.293 127.047 322.277 128.047 322.277 c 129.137 322.277 129.902 323.293
 129.902 324.762 c 129.902 326.262 129.121 327.355 128.059 327.355 c h
139.035 328.965 m 141.023 328.965 l 141.023 320.605 l 141.023 318.699 139.617
 317.605 137.18 317.605 c 135.93 317.605 135.023 317.855 134.383 318.387
 c 133.852 318.824 133.602 319.262 133.586 319.902 c 135.758 319.902 l 135.93
 319.277 136.461 318.949 137.242 318.949 c 138.305 318.949 139.035 319.621
 139.035 320.605 c 139.035 321.699 l 138.258 320.809 137.68 320.527 136.742
 320.527 c 134.742 320.527 133.43 322.199 133.43 324.73 c 133.43 327.23 
134.867 329.105 136.785 329.105 c 137.711 329.105 138.398 328.684 139.035
 327.73 c h
137.227 327.355 m 136.211 327.355 135.523 326.293 135.523 324.762 c 135.523
 323.293 136.211 322.277 137.211 322.277 c 138.305 322.277 139.07 323.293
 139.07 324.762 c 139.07 326.262 138.285 327.355 137.227 327.355 c h
149.938 324.262 m 144.516 324.262 l 144.531 323.496 144.609 323.137 144.812
 322.84 c 145.109 322.387 145.594 322.137 146.188 322.137 c 146.953 322.137
 147.531 322.512 147.797 323.152 c 149.859 323.152 l 149.391 321.559 147.922
 320.527 146.109 320.527 c 143.812 320.527 142.406 322.121 142.406 324.715
 c 142.406 327.434 143.828 329.105 146.156 329.105 c 147.797 329.105 149.094
 328.215 149.641 326.746 c 149.828 326.184 149.953 325.434 149.953 324.621
 c 149.953 324.512 149.953 324.434 149.938 324.262 c h
144.531 325.652 m 147.766 325.652 l 147.719 326.215 147.625 326.527 147.438
 326.824 c 147.141 327.246 146.656 327.496 146.125 327.496 c 145.203 327.496
 144.672 326.887 144.531 325.652 c h
151.355 328.965 m 153.465 328.965 l 153.465 327.387 l 153.918 328.48 154.746
 329.105 155.715 329.105 c 155.777 329.105 155.855 329.105 155.965 329.09
 c 155.965 326.965 l 155.684 327.012 155.527 327.027 155.309 327.027 c 154.074
 327.027 153.465 326.402 153.465 325.184 c 153.465 320.871 l 151.355 320.871
 l f
105.184 314.762 m 105.184 306.668 l 103.074 306.668 l 103.074 314.762 l
 h
105.184 317.605 m 105.184 315.73 l 103.074 315.73 l 103.074 317.605 l h
107.18 314.762 m 109.289 314.762 l 109.289 313.605 l 109.883 314.496 110.617
 314.902 111.711 314.902 c 113.445 314.902 114.43 313.887 114.43 312.105
 c 114.43 306.668 l 112.336 306.668 l 112.336 311.668 l 112.336 312.621 
111.883 313.121 110.977 313.121 c 109.961 313.121 109.289 312.48 109.289
 311.527 c 109.289 306.668 l 107.18 306.668 l h
122.984 312.152 m 120.953 312.152 l 120.938 312.887 120.453 313.246 119.438
 313.246 c 118.703 313.246 118.223 312.949 118.223 312.496 c 118.223 312.168
 118.379 312.059 118.973 311.871 c 121.609 311.105 l 122.688 310.793 123.203
 310.121 123.203 309.074 c 123.203 308.277 122.848 307.527 122.254 307.043
 c 121.645 306.559 120.801 306.324 119.676 306.324 c 117.203 306.324 115.906
 307.246 115.848 309.027 c 117.895 309.027 l 117.984 308.59 118.078 308.418
 118.301 308.262 c 118.578 308.074 119.004 307.98 119.551 307.98 c 120.52
 307.98 121.109 308.277 121.109 308.762 c 121.109 309.105 120.926 309.262
 120.406 309.434 c 117.895 310.215 l 117.109 310.465 116.859 310.605 116.578
 310.887 c 116.301 311.199 116.129 311.668 116.129 312.199 c 116.129 313.871
 117.406 314.902 119.453 314.902 c 121.629 314.902 122.953 313.871 122.984
 312.152 c h
128.262 314.605 m 128.262 313.215 l 127.094 313.215 l 127.094 308.793 l
 127.094 308.074 127.23 307.918 127.777 307.918 c 127.934 307.918 128.059
 307.934 128.262 307.965 c 128.262 306.48 l 127.887 306.371 127.512 306.324
 127.047 306.324 c 125.672 306.324 124.996 306.949 124.996 308.23 c 124.996
 313.215 l 123.949 313.215 l 123.949 314.605 l 124.996 314.605 l 124.996
 316.777 l 127.094 316.777 l 127.094 314.605 l h
136.602 306.918 m 136.602 306.668 l 134.32 306.668 l 134.133 306.902 134.086
 307.059 134.086 307.48 c 133.352 306.715 132.523 306.324 131.617 306.324
 c 130.898 306.324 130.195 306.605 129.727 307.09 c 129.352 307.496 129.164
 308.059 129.164 308.746 c 129.164 310.215 129.945 311.027 131.555 311.309
 c 132.383 311.449 l 133.43 311.621 133.43 311.621 133.711 311.762 c 133.93
 311.887 134.07 312.121 134.07 312.402 c 134.07 312.934 133.664 313.215 
132.852 313.215 c 131.82 313.215 131.477 312.934 131.367 312.105 c 129.336
 312.105 l 129.477 313.98 130.617 314.902 132.805 314.902 c 134.992 314.902
 136.117 314.059 136.117 312.418 c 136.117 307.918 l 136.117 307.496 136.227
 307.262 136.602 306.918 c h
134.07 309.918 m 134.07 310.496 l 133.82 310.371 133.742 310.34 133.18 
310.23 c 132.461 310.105 l 131.586 309.918 131.258 309.621 131.258 308.996
 c 131.258 308.387 131.695 308.012 132.398 308.012 c 133.461 308.012 134.07
 308.715 134.07 309.918 c h
138.02 314.762 m 140.129 314.762 l 140.129 313.605 l 140.723 314.496 141.457
 314.902 142.551 314.902 c 144.285 314.902 145.27 313.887 145.27 312.105
 c 145.27 306.668 l 143.176 306.668 l 143.176 311.668 l 143.176 312.621 
142.723 313.121 141.816 313.121 c 140.801 313.121 140.129 312.48 140.129
 311.527 c 140.129 306.668 l 138.02 306.668 l h
154.074 311.73 m 152.059 311.73 l 151.824 312.809 151.418 313.215 150.559
 313.215 c 149.965 313.215 149.496 312.965 149.262 312.512 c 149.012 312.043
 148.855 311.324 148.855 310.559 c 148.855 308.98 149.496 308.012 150.559
 308.012 c 151.371 308.012 151.793 308.418 152.059 309.48 c 154.074 309.48
 l 153.887 307.543 152.512 306.324 150.559 306.324 c 148.152 306.324 146.762
 307.887 146.762 310.559 c 146.762 313.309 148.168 314.902 150.574 314.902
 c 152.605 314.902 153.934 313.715 154.074 311.73 c h
162.445 310.059 m 157.023 310.059 l 157.039 309.293 157.117 308.934 157.32
 308.637 c 157.617 308.184 158.102 307.934 158.695 307.934 c 159.461 307.934
 160.039 308.309 160.305 308.949 c 162.367 308.949 l 161.898 307.355 160.43
 306.324 158.617 306.324 c 156.32 306.324 154.914 307.918 154.914 310.512
 c 154.914 313.23 156.336 314.902 158.664 314.902 c 160.305 314.902 161.602
 314.012 162.148 312.543 c 162.336 311.98 162.461 311.23 162.461 310.418
 c 162.461 310.309 162.461 310.23 162.445 310.059 c h
157.039 311.449 m 160.273 311.449 l 160.227 312.012 160.133 312.324 159.945
 312.621 c 159.648 313.043 159.164 313.293 158.633 313.293 c 157.711 313.293
 157.18 312.684 157.039 311.449 c f
0.454902 0.156863 0.156863 rg
q 1 0 0 1 0 349 cm
17.5 -2.5 230 -57 re S Q
0.65098 0.486275 0.32549 rg
17.5 59.5 95 -57 re f
0 g
44.645 44.809 m 46.738 44.809 l 46.738 40.918 l 47.254 41.73 47.973 42.105
 48.973 42.105 c 49.957 42.105 50.957 41.59 51.504 40.809 c 52.051 40.027
 52.379 38.918 52.379 37.809 c 52.379 35.371 50.91 33.527 48.973 33.527 
c 47.957 33.527 47.254 33.902 46.738 34.703 c 46.738 33.871 l 44.645 33.871
 l h
48.504 40.355 m 47.457 40.355 46.738 39.309 46.738 37.84 c 46.738 36.309
 47.441 35.277 48.504 35.277 c 49.551 35.277 50.285 36.328 50.285 37.809
 c 50.285 39.309 49.551 40.355 48.504 40.355 c h
61.027 33.871 m 58.934 33.871 l 58.934 34.828 l 58.34 33.934 57.605 33.527
 56.496 33.527 c 54.777 33.527 53.793 34.543 53.793 36.328 c 53.793 41.965
 l 55.887 41.965 l 55.887 36.762 l 55.887 35.793 56.34 35.309 57.23 35.309
 c 58.262 35.309 58.934 35.934 58.934 36.902 c 58.934 41.965 l 61.027 41.965
 l h
66.77 41.809 m 66.77 40.418 l 65.535 40.418 l 65.535 33.871 l 63.426 33.871
 l 63.426 40.418 l 62.285 40.418 l 62.285 41.809 l 63.426 41.809 l 63.426
 42.777 l 63.426 44.152 64.113 44.809 65.504 44.809 c 65.785 44.809 66.316
 44.793 66.707 44.762 c 66.707 43.184 l 66.52 43.215 66.285 43.23 66.098
 43.23 c 65.707 43.23 65.535 43.027 65.535 42.605 c 65.535 41.809 l h
71.766 41.809 m 71.766 40.418 l 70.531 40.418 l 70.531 33.871 l 68.422 
33.871 l 68.422 40.418 l 67.281 40.418 l 67.281 41.809 l 68.422 41.809 l
 68.422 42.777 l 68.422 44.152 69.109 44.809 70.5 44.809 c 70.781 44.809
 71.312 44.793 71.703 44.762 c 71.703 43.184 l 71.516 43.215 71.281 43.23
 71.094 43.23 c 70.703 43.23 70.531 43.027 70.531 42.605 c 70.531 41.809
 l h
79.934 37.262 m 74.512 37.262 l 74.523 36.496 74.602 36.137 74.809 35.84
 c 75.102 35.387 75.59 35.137 76.184 35.137 c 76.945 35.137 77.523 35.512
 77.789 36.152 c 79.852 36.152 l 79.387 34.559 77.914 33.527 76.102 33.527
 c 73.809 33.527 72.398 35.121 72.398 37.715 c 72.398 40.434 73.82 42.105
 76.148 42.105 c 77.789 42.105 79.09 41.215 79.637 39.746 c 79.82 39.184
 79.945 38.434 79.945 37.621 c 79.945 37.512 79.945 37.434 79.934 37.262
 c h
74.523 38.652 m 77.762 38.652 l 77.715 39.215 77.617 39.527 77.434 39.828
 c 77.137 40.246 76.648 40.496 76.117 40.496 c 75.195 40.496 74.664 39.887
 74.523 38.652 c h
81.348 41.965 m 83.461 41.965 l 83.461 40.387 l 83.91 41.48 84.738 42.105
 85.711 42.105 c 85.77 42.105 85.848 42.105 85.961 42.09 c 85.961 39.965
 l 85.676 40.012 85.52 40.027 85.301 40.027 c 84.066 40.027 83.461 39.402
 83.461 38.184 c 83.461 33.871 l 81.348 33.871 l f
37.684 27.762 m 37.684 19.668 l 35.574 19.668 l 35.574 27.762 l h
37.684 30.605 m 37.684 28.73 l 35.574 28.73 l 35.574 30.605 l h
39.68 27.762 m 41.789 27.762 l 41.789 26.605 l 42.383 27.496 43.117 27.902
 44.211 27.902 c 45.945 27.902 46.93 26.887 46.93 25.105 c 46.93 19.668 
l 44.836 19.668 l 44.836 24.668 l 44.836 25.621 44.383 26.121 43.477 26.121
 c 42.461 26.121 41.789 25.48 41.789 24.527 c 41.789 19.668 l 39.68 19.668
 l h
55.484 25.152 m 53.457 25.152 l 53.438 25.887 52.957 26.246 51.938 26.246
 c 51.207 26.246 50.723 25.949 50.723 25.496 c 50.723 25.168 50.879 25.059
 51.473 24.871 c 54.109 24.105 l 55.188 23.793 55.707 23.121 55.707 22.074
 c 55.707 21.277 55.348 20.527 54.754 20.043 c 54.145 19.559 53.301 19.324
 52.176 19.324 c 49.707 19.324 48.406 20.246 48.348 22.027 c 50.395 22.027
 l 50.484 21.59 50.582 21.418 50.801 21.262 c 51.082 21.074 51.504 20.98
 52.051 20.98 c 53.02 20.98 53.609 21.277 53.609 21.762 c 53.609 22.105 
53.426 22.262 52.906 22.434 c 50.395 23.215 l 49.609 23.465 49.359 23.605
 49.082 23.887 c 48.801 24.199 48.629 24.668 48.629 25.199 c 48.629 26.871
 49.906 27.902 51.957 27.902 c 54.129 27.902 55.457 26.871 55.484 25.152
 c h
60.762 27.605 m 60.762 26.215 l 59.594 26.215 l 59.594 21.793 l 59.594 
21.074 59.73 20.918 60.277 20.918 c 60.434 20.918 60.559 20.934 60.762 20.965
 c 60.762 19.48 l 60.387 19.371 60.012 19.324 59.543 19.324 c 58.168 19.324
 57.496 19.949 57.496 21.23 c 57.496 26.215 l 56.453 26.215 l 56.453 27.605
 l 57.496 27.605 l 57.496 29.777 l 59.594 29.777 l 59.594 27.605 l h
69.102 19.918 m 69.102 19.668 l 66.82 19.668 l 66.633 19.902 66.586 20.059
 66.586 20.48 c 65.852 19.715 65.023 19.324 64.117 19.324 c 63.398 19.324
 62.695 19.605 62.227 20.09 c 61.852 20.496 61.664 21.059 61.664 21.746 
c 61.664 23.215 62.445 24.027 64.055 24.309 c 64.883 24.449 l 65.93 24.621
 65.93 24.621 66.211 24.762 c 66.43 24.887 66.57 25.121 66.57 25.402 c 66.57
 25.934 66.164 26.215 65.352 26.215 c 64.32 26.215 63.977 25.934 63.867 
25.105 c 61.836 25.105 l 61.977 26.98 63.117 27.902 65.305 27.902 c 67.492
 27.902 68.617 27.059 68.617 25.418 c 68.617 20.918 l 68.617 20.496 68.727
 20.262 69.102 19.918 c h
66.57 22.918 m 66.57 23.496 l 66.32 23.371 66.242 23.34 65.68 23.23 c 64.961
 23.105 l 64.086 22.918 63.758 22.621 63.758 21.996 c 63.758 21.387 64.195
 21.012 64.898 21.012 c 65.961 21.012 66.57 21.715 66.57 22.918 c h
70.52 27.762 m 72.629 27.762 l 72.629 26.605 l 73.223 27.496 73.957 27.902
 75.051 27.902 c 76.785 27.902 77.77 26.887 77.77 25.105 c 77.77 19.668 
l 75.676 19.668 l 75.676 24.668 l 75.676 25.621 75.223 26.121 74.316 26.121
 c 73.301 26.121 72.629 25.48 72.629 24.527 c 72.629 19.668 l 70.52 19.668
 l h
86.574 24.73 m 84.559 24.73 l 84.324 25.809 83.918 26.215 83.059 26.215
 c 82.465 26.215 81.996 25.965 81.762 25.512 c 81.512 25.043 81.355 24.324
 81.355 23.559 c 81.355 21.98 81.996 21.012 83.059 21.012 c 83.871 21.012
 84.293 21.418 84.559 22.48 c 86.574 22.48 l 86.387 20.543 85.012 19.324
 83.059 19.324 c 80.652 19.324 79.262 20.887 79.262 23.559 c 79.262 26.309
 80.668 27.902 83.074 27.902 c 85.105 27.902 86.434 26.715 86.574 24.73 
c h
94.945 23.059 m 89.523 23.059 l 89.539 22.293 89.617 21.934 89.82 21.637
 c 90.117 21.184 90.602 20.934 91.195 20.934 c 91.961 20.934 92.539 21.309
 92.805 21.949 c 94.867 21.949 l 94.398 20.355 92.93 19.324 91.117 19.324
 c 88.82 19.324 87.414 20.918 87.414 23.512 c 87.414 26.23 88.836 27.902
 91.164 27.902 c 92.805 27.902 94.102 27.012 94.648 25.543 c 94.836 24.98
 94.961 24.23 94.961 23.418 c 94.961 23.309 94.961 23.23 94.945 23.059 c
 h
89.539 24.449 m 92.773 24.449 l 92.727 25.012 92.633 25.324 92.445 25.621
 c 92.148 26.043 91.664 26.293 91.133 26.293 c 90.211 26.293 89.68 25.684
 89.539 24.449 c f
0.380392 0.282353 0.188235 rg
q 1 0 0 1 0 349 cm
17.5 -289.5 95 -57 re S Q
0 g
1 w
q 1 0 0 1 0 349 cm
200 -169.461 m 200 -194.5 l S Q
200 146.5 m 205 158.5 l 200 155.5 l 195 158.5 l f
q 1 0 0 1 0 349 cm
65 -169.492 m 65 -194.5 l S Q
65 146.5 m 70 158.5 l 65 155.5 l 60 158.5 l f
q 1 0 0 1 0 349 cm
247.512 -138.836 m 256.328 -138.789 l 285.461 -137.312 l 296.84 -135.703
 l 306.328 -133.305 l 314.102 -129.957 l 320.32 -125.5 l 325.164 -119.777
 l 328.809 -112.633 l 331.414 -103.906 l 333.164 -93.438 l 334.719 -67.5
 l 334.719 -67.398 l S Q
334.816 289.602 m 329.672 277.66 l 334.707 280.602 l 339.672 277.539 l f
q 1 0 0 1 0 349 cm
247.512 -139.27 m 256.328 -139.352 l 285.461 -141.797 l 296.84 -144.465
 l 306.328 -148.438 l 314.102 -153.988 l 320.32 -161.375 l 325.164 -170.859
 l 328.809 -182.699 l 331.414 -197.164 l 333.164 -214.516 l 334.77 -258.914
 l 334.859 -281.5 l S Q
334.891 59.5 m 339.844 71.52 l 334.855 68.5 l 329.844 71.48 l f
4 w
q 1 0 0 1 0 349 cm
184.996 -259.465 m 184.996 -289.52 l S Q
q 1 0 0 1 0 349 cm
213.316 -259.477 m 213.316 -289.504 l S Q
q 1 0 0 1 0 349 cm
200 -259.5 m 200 -289.5 l S Q
1 w
[ 6 2] 0 d
q 1 0 0 1 0 349 cm
255.5 -318 m 287.5 -318 l S Q
247.5 31 m 259.5 26 l 256.5 31 l 259.5 36 l f
4 w
[] 0.0 d
q 1 0 0 1 0 349 cm
132.5 -112.5 m 132.5 -59.5 l S Q
q 1 0 0 1 0 349 cm
115.898 -112.504 m 115.898 -59.512 l S Q
q 1 0 0 1 0 349 cm
148.605 -112.504 m 148.605 -59.527 l S Q
1 w
[ 6 2] 0 d
q 1 0 0 1 0 349 cm
255.5 -31 m 287.5 -31 l S Q
247.5 318 m 259.5 313 l 256.5 318 l 259.5 323 l f
4 w
[] 0.0 d
q 1 0 0 1 0 349 cm
49.996 -259.465 m 49.996 -289.52 l S Q
q 1 0 0 1 0 349 cm
78.316 -259.477 m 78.316 -289.504 l S Q
q 1 0 0 1 0 349 cm
65 -259.5 m 65 -289.5 l S Q
1 w
[ 6 2] 0 d
q 1 0 0 1 0 349 cm
112.5 -318 m 152.5 -318 l S Q
  Q
Q
Q Q
showpage
%%Trailer
end restore
%%EOF
